<?xml version="1.0" encoding="UTF-8" ?>
<testsuite tests="17" failures="0" name="by.epam.feliks.kaminski.newsmanagement.service.impl.ServiceNewsTest" time="0.027" errors="0" skipped="0">
  <properties>
    <property name="java.runtime.name" value="Java(TM) SE Runtime Environment"/>
    <property name="sun.boot.library.path" value="C:\Program Files\Java\jdk1.8.0_60\jre\bin"/>
    <property name="java.vm.version" value="25.60-b23"/>
    <property name="java.vm.vendor" value="Oracle Corporation"/>
    <property name="java.vendor.url" value="http://java.oracle.com/"/>
    <property name="path.separator" value=";"/>
    <property name="guice.disable.misplaced.annotation.check" value="true"/>
    <property name="java.vm.name" value="Java HotSpot(TM) 64-Bit Server VM"/>
    <property name="file.encoding.pkg" value="sun.io"/>
    <property name="user.script" value=""/>
    <property name="user.country" value="US"/>
    <property name="sun.java.launcher" value="SUN_STANDARD"/>
    <property name="sun.os.patch.level" value="Service Pack 1"/>
    <property name="java.vm.specification.name" value="Java Virtual Machine Specification"/>
    <property name="user.dir" value="D:\Feliks_Kaminski\JavaLab\Task1\newsDAO"/>
    <property name="java.runtime.version" value="1.8.0_60-b27"/>
    <property name="java.awt.graphicsenv" value="sun.awt.Win32GraphicsEnvironment"/>
    <property name="java.endorsed.dirs" value="C:\Program Files\Java\jdk1.8.0_60\jre\lib\endorsed"/>
    <property name="os.arch" value="amd64"/>
    <property name="java.io.tmpdir" value="C:\Users\Feliks_Kaminski@epam.com\AppData\Local\Temp\"/>
    <property name="line.separator" value="
"/>
    <property name="java.vm.specification.vendor" value="Oracle Corporation"/>
    <property name="user.variant" value=""/>
    <property name="os.name" value="Windows 7"/>
    <property name="classworlds.conf" value="D:\maven\bin\m2.conf"/>
    <property name="sun.jnu.encoding" value="Cp1251"/>
    <property name="java.library.path" value="C:\Program Files\Java\jdk1.8.0_60\bin;C:\WINDOWS\Sun\Java\bin;C:\WINDOWS\system32;C:\WINDOWS;C:\oraclexe\app\oracle\product\11.2.0\server\bin;C:\ProgramData\Oracle\Java\javapath;C:\WINDOWS\system32;C:\WINDOWS;C:\WINDOWS\System32\Wbem;C:\WINDOWS\System32\WindowsPowerShell\v1.0\;C:\WINDOWS\idmu\common;C:\Program Files\TortoiseSVN\bin;C:\Program Files\Java\jdk1.8.0_25\bin;C:\Program Files (x86)\Skype\Phone\;C:\Program Files (x86)\Git\bin;D:\maven\bin;C:\Program Files\Java\jdk1.8.0_60\bin;C:\Program Files (x86)\Microsoft SQL Server\100\Tools\Binn\;C:\Program Files\Microsoft SQL Server\100\Tools\Binn\;C:\Program Files\Microsoft SQL Server\100\DTS\Binn\;C:\Program Files (x86)\Microsoft SQL Server\100\Tools\Binn\VSShell\Common7\IDE\;C:\Program Files (x86)\Microsoft Visual Studio 9.0\Common7\IDE\PrivateAssemblies\;C:\Program Files (x86)\Microsoft SQL Server\100\DTS\Binn\;."/>
    <property name="java.specification.name" value="Java Platform API Specification"/>
    <property name="java.class.version" value="52.0"/>
    <property name="sun.management.compiler" value="HotSpot 64-Bit Tiered Compilers"/>
    <property name="os.version" value="6.1"/>
    <property name="user.home" value="C:\Users\Feliks_Kaminski@epam.com"/>
    <property name="user.timezone" value="Europe/Minsk"/>
    <property name="java.awt.printerjob" value="sun.awt.windows.WPrinterJob"/>
    <property name="java.specification.version" value="1.8"/>
    <property name="file.encoding" value="Cp1251"/>
    <property name="user.name" value="Feliks_Kaminski"/>
    <property name="java.class.path" value="D:\maven\boot\plexus-classworlds-2.5.1.jar"/>
    <property name="org.slf4j.simpleLogger.defaultLogLevel" value="info"/>
    <property name="java.vm.specification.version" value="1.8"/>
    <property name="sun.arch.data.model" value="64"/>
    <property name="java.home" value="C:\Program Files\Java\jdk1.8.0_60\jre"/>
    <property name="sun.java.command" value="org.codehaus.plexus.classworlds.launcher.Launcher clean install"/>
    <property name="java.specification.vendor" value="Oracle Corporation"/>
    <property name="user.language" value="en"/>
    <property name="awt.toolkit" value="sun.awt.windows.WToolkit"/>
    <property name="java.vm.info" value="mixed mode"/>
    <property name="java.version" value="1.8.0_60"/>
    <property name="java.ext.dirs" value="C:\Program Files\Java\jdk1.8.0_60\jre\lib\ext;C:\WINDOWS\Sun\Java\lib\ext"/>
    <property name="sun.boot.class.path" value="C:\Program Files\Java\jdk1.8.0_60\jre\lib\resources.jar;C:\Program Files\Java\jdk1.8.0_60\jre\lib\rt.jar;C:\Program Files\Java\jdk1.8.0_60\jre\lib\sunrsasign.jar;C:\Program Files\Java\jdk1.8.0_60\jre\lib\jsse.jar;C:\Program Files\Java\jdk1.8.0_60\jre\lib\jce.jar;C:\Program Files\Java\jdk1.8.0_60\jre\lib\charsets.jar;C:\Program Files\Java\jdk1.8.0_60\jre\lib\jfr.jar;C:\Program Files\Java\jdk1.8.0_60\jre\classes"/>
    <property name="sun.stderr.encoding" value="cp866"/>
    <property name="java.vendor" value="Oracle Corporation"/>
    <property name="maven.home" value="D:\maven"/>
    <property name="file.separator" value="\"/>
    <property name="java.vendor.url.bug" value="http://bugreport.sun.com/bugreport/"/>
    <property name="sun.cpu.endian" value="little"/>
    <property name="sun.io.unicode.encoding" value="UnicodeLittle"/>
    <property name="sun.stdout.encoding" value="cp866"/>
    <property name="sun.desktop" value="windows"/>
    <property name="sun.cpu.isalist" value="amd64"/>
  </properties>
  <testcase classname="by.epam.feliks.kaminski.newsmanagement.service.impl.ServiceNewsTest" name="getAuthorIdByNewsIdTest" time="0.001"/>
  <testcase classname="by.epam.feliks.kaminski.newsmanagement.service.impl.ServiceNewsTest" name="deleteNewsAuthorTest" time="0.001"/>
  <testcase classname="by.epam.feliks.kaminski.newsmanagement.service.impl.ServiceNewsTest" name="getNewsTagExistanceTest" time="0"/>
  <testcase classname="by.epam.feliks.kaminski.newsmanagement.service.impl.ServiceNewsTest" name="getNewsListByCriteriaTest" time="0.012"/>
  <testcase classname="by.epam.feliks.kaminski.newsmanagement.service.impl.ServiceNewsTest" name="deleteNewsTagByTagIdTest" time="0"/>
  <testcase classname="by.epam.feliks.kaminski.newsmanagement.service.impl.ServiceNewsTest" name="getNewsTest" time="0"/>
  <testcase classname="by.epam.feliks.kaminski.newsmanagement.service.impl.ServiceNewsTest" name="getNewsIdListByAuthorIdTest" time="0"/>
  <testcase classname="by.epam.feliks.kaminski.newsmanagement.service.impl.ServiceNewsTest" name="deleteNewsTest" time="0"/>
  <testcase classname="by.epam.feliks.kaminski.newsmanagement.service.impl.ServiceNewsTest" name="editNewsTest" time="0.001"/>
  <testcase classname="by.epam.feliks.kaminski.newsmanagement.service.impl.ServiceNewsTest" name="deleteNewsTagTest" time="0"/>
  <testcase classname="by.epam.feliks.kaminski.newsmanagement.service.impl.ServiceNewsTest" name="getTagIdListByNewsIdTest" time="0.009"/>
  <testcase classname="by.epam.feliks.kaminski.newsmanagement.service.impl.ServiceNewsTest" name="addNewsTest" time="0"/>
  <testcase classname="by.epam.feliks.kaminski.newsmanagement.service.impl.ServiceNewsTest" name="addNews_TagTest" time="0"/>
  <testcase classname="by.epam.feliks.kaminski.newsmanagement.service.impl.ServiceNewsTest" name="addNewsAuthorTest" time="0"/>
  <testcase classname="by.epam.feliks.kaminski.newsmanagement.service.impl.ServiceNewsTest" name="getNewsByCriteriaCountTest" time="0.001"/>
  <testcase classname="by.epam.feliks.kaminski.newsmanagement.service.impl.ServiceNewsTest" name="deleteNewsTagByNewsIdTest" time="0.002"/>
  <testcase classname="by.epam.feliks.kaminski.newsmanagement.service.impl.ServiceNewsTest" name="getNewsIdListByTagIdTest" time="0"/>
</testsuite>