127.0.0.1 - - [19/Feb/2016:09:33:32 +0300] "GET / HTTP/1.1" 404 994
0:0:0:0:0:0:0:1 - - [19/Feb/2016:09:33:50 +0300] "GET /news-admin/ HTTP/1.1" 500 3780
127.0.0.1 - - [19/Feb/2016:10:13:52 +0300] "GET / HTTP/1.1" 404 994
0:0:0:0:0:0:0:1 - - [19/Feb/2016:10:13:56 +0300] "GET /news-admin/ HTTP/1.1" 500 3780
127.0.0.1 - - [19/Feb/2016:10:23:00 +0300] "GET / HTTP/1.1" 404 994
0:0:0:0:0:0:0:1 - - [19/Feb/2016:10:23:02 +0300] "GET /news-admin/ HTTP/1.1" 500 3780
127.0.0.1 - - [19/Feb/2016:10:27:50 +0300] "GET / HTTP/1.1" 404 994
0:0:0:0:0:0:0:1 - - [19/Feb/2016:10:27:52 +0300] "GET /news-admin/ HTTP/1.1" 500 3780
127.0.0.1 - - [19/Feb/2016:10:40:10 +0300] "GET / HTTP/1.1" 404 994
0:0:0:0:0:0:0:1 - - [19/Feb/2016:10:40:14 +0300] "GET /news-admin/ HTTP/1.1" 500 3780
0:0:0:0:0:0:0:1 - - [19/Feb/2016:10:44:50 +0300] "GET /news-admin/ HTTP/1.1" 200 235
0:0:0:0:0:0:0:1 - - [19/Feb/2016:10:45:35 +0300] "GET /news-admin/ HTTP/1.1" 200 232
127.0.0.1 - - [19/Feb/2016:10:48:58 +0300] "GET / HTTP/1.1" 404 994
0:0:0:0:0:0:0:1 - - [19/Feb/2016:10:49:01 +0300] "GET /news-admin/ HTTP/1.1" 500 3780
127.0.0.1 - - [19/Feb/2016:11:08:21 +0300] "GET / HTTP/1.1" 404 994
0:0:0:0:0:0:0:1 - - [19/Feb/2016:11:08:23 +0300] "GET /news-admin/ HTTP/1.1" 500 3780
127.0.0.1 - - [19/Feb/2016:11:29:04 +0300] "GET / HTTP/1.1" 404 994
0:0:0:0:0:0:0:1 - - [19/Feb/2016:11:29:10 +0300] "GET /news-admin/ HTTP/1.1" 500 3785
127.0.0.1 - - [19/Feb/2016:11:33:32 +0300] "GET / HTTP/1.1" 404 994
0:0:0:0:0:0:0:1 - - [19/Feb/2016:11:33:35 +0300] "GET /news-admin/ HTTP/1.1" 200 236
0:0:0:0:0:0:0:1 - - [19/Feb/2016:11:33:41 +0300] "GET /news-admin/tags HTTP/1.1" 500 17209
127.0.0.1 - - [19/Feb/2016:11:47:23 +0300] "GET / HTTP/1.1" 404 994
0:0:0:0:0:0:0:1 - - [19/Feb/2016:11:47:29 +0300] "GET /news-admin/ HTTP/1.1" 200 236
0:0:0:0:0:0:0:1 - - [19/Feb/2016:11:47:55 +0300] "GET /news-admin/tags HTTP/1.1" 500 17209
127.0.0.1 - - [19/Feb/2016:11:59:22 +0300] "GET / HTTP/1.1" 404 994
0:0:0:0:0:0:0:1 - - [19/Feb/2016:11:59:29 +0300] "GET /news-admin/ HTTP/1.1" 200 238
0:0:0:0:0:0:0:1 - - [19/Feb/2016:11:59:37 +0300] "GET /news-admin/tags HTTP/1.1" 500 17209
127.0.0.1 - - [19/Feb/2016:12:35:20 +0300] "GET / HTTP/1.1" 404 994
0:0:0:0:0:0:0:1 - - [19/Feb/2016:12:35:29 +0300] "GET /news-admin/ HTTP/1.1" 200 238
0:0:0:0:0:0:0:1 - - [19/Feb/2016:12:35:35 +0300] "GET /news-admin/tags HTTP/1.1" 404 992
0:0:0:0:0:0:0:1 - - [19/Feb/2016:12:36:24 +0300] "GET /news-admin/ HTTP/1.1" 200 238
0:0:0:0:0:0:0:1 - - [19/Feb/2016:12:36:25 +0300] "GET /news-admin/tags HTTP/1.1" 404 992
127.0.0.1 - - [19/Feb/2016:12:43:01 +0300] "GET / HTTP/1.1" 404 994
0:0:0:0:0:0:0:1 - - [19/Feb/2016:12:43:03 +0300] "GET /news-admin/ HTTP/1.1" 200 238
0:0:0:0:0:0:0:1 - - [19/Feb/2016:12:43:06 +0300] "GET /news-admin/tags HTTP/1.1" 500 17209
127.0.0.1 - - [19/Feb/2016:12:54:17 +0300] "GET / HTTP/1.1" 404 994
0:0:0:0:0:0:0:1 - - [19/Feb/2016:12:54:18 +0300] "GET /news-admin/ HTTP/1.1" 200 238
0:0:0:0:0:0:0:1 - - [19/Feb/2016:12:54:21 +0300] "GET /news-admin/tags HTTP/1.1" 500 10025
0:0:0:0:0:0:0:1 - - [19/Feb/2016:12:55:09 +0300] "GET /news-admin/?language=ru_RU HTTP/1.1" 200 238
0:0:0:0:0:0:0:1 - - [19/Feb/2016:12:55:13 +0300] "GET /news-admin/tags HTTP/1.1" 500 10025
127.0.0.1 - - [19/Feb/2016:12:56:15 +0300] "GET / HTTP/1.1" 404 994
0:0:0:0:0:0:0:1 - - [19/Feb/2016:12:56:17 +0300] "GET /news-admin/ HTTP/1.1" 200 238
0:0:0:0:0:0:0:1 - - [19/Feb/2016:12:56:26 +0300] "GET /news-admin/?language=ru_RU HTTP/1.1" 200 238
0:0:0:0:0:0:0:1 - - [19/Feb/2016:12:56:29 +0300] "GET /news-admin/tags HTTP/1.1" 500 17209
0:0:0:0:0:0:0:1 - - [19/Feb/2016:12:57:29 +0300] "GET /news-admin/ HTTP/1.1" 200 238
0:0:0:0:0:0:0:1 - - [19/Feb/2016:12:57:31 +0300] "GET /news-admin/tags HTTP/1.1" 500 17209
0:0:0:0:0:0:0:1 - - [19/Feb/2016:12:57:55 +0300] "GET /news-admin/tags?language=ru_RU HTTP/1.1" 500 17209
0:0:0:0:0:0:0:1 - - [19/Feb/2016:12:57:57 +0300] "GET /news-admin/?language=ru_RU HTTP/1.1" 200 238
0:0:0:0:0:0:0:1 - - [19/Feb/2016:12:57:57 +0300] "GET /news-admin/tags?language=ru_RU HTTP/1.1" 500 17209
0:0:0:0:0:0:0:1 - - [19/Feb/2016:12:57:58 +0300] "GET /news-admin/?language=ru_RU HTTP/1.1" 200 238
0:0:0:0:0:0:0:1 - - [19/Feb/2016:12:57:58 +0300] "GET /news-admin/?language=ru_RU HTTP/1.1" 200 238
0:0:0:0:0:0:0:1 - - [19/Feb/2016:12:58:01 +0300] "GET /news-admin/?language=ru_RU HTTP/1.1" 200 238
0:0:0:0:0:0:0:1 - - [19/Feb/2016:12:58:07 +0300] "GET /news-admin/tags HTTP/1.1" 500 17209
0:0:0:0:0:0:0:1 - - [19/Feb/2016:12:58:10 +0300] "GET /news-admin/tags?language=ru_RU HTTP/1.1" 500 17209
0:0:0:0:0:0:0:1 - - [19/Feb/2016:12:58:19 +0300] "GET /news-admin/tags?language=ru_RU HTTP/1.1" 500 17209
127.0.0.1 - - [19/Feb/2016:13:00:37 +0300] "GET / HTTP/1.1" 404 994
0:0:0:0:0:0:0:1 - - [19/Feb/2016:13:00:39 +0300] "GET /news-admin/ HTTP/1.1" 200 238
0:0:0:0:0:0:0:1 - - [19/Feb/2016:13:00:41 +0300] "GET /news-admin/tags HTTP/1.1" 500 17209
0:0:0:0:0:0:0:1 - - [19/Feb/2016:13:01:02 +0300] "GET /news-admin/tags HTTP/1.1" 500 17209
0:0:0:0:0:0:0:1 - - [19/Feb/2016:13:01:03 +0300] "GET /news-admin/tags HTTP/1.1" 500 17209
0:0:0:0:0:0:0:1 - - [19/Feb/2016:13:02:28 +0300] "GET /news-admin/ HTTP/1.1" 200 238
0:0:0:0:0:0:0:1 - - [19/Feb/2016:13:02:30 +0300] "GET /news-admin/tags HTTP/1.1" 500 17209
127.0.0.1 - - [19/Feb/2016:13:26:37 +0300] "GET / HTTP/1.1" 404 994
0:0:0:0:0:0:0:1 - - [19/Feb/2016:13:26:38 +0300] "GET /news-admin/ HTTP/1.1" 200 238
0:0:0:0:0:0:0:1 - - [19/Feb/2016:13:26:40 +0300] "GET /news-admin/tags HTTP/1.1" 500 16285
0:0:0:0:0:0:0:1 - - [19/Feb/2016:13:27:57 +0300] "GET /news-admin/ HTTP/1.1" 200 238
0:0:0:0:0:0:0:1 - - [19/Feb/2016:13:28:01 +0300] "GET /news-admin/tags HTTP/1.1" 500 17209
0:0:0:0:0:0:0:1 - - [19/Feb/2016:13:28:45 +0300] "GET /news-admin/ HTTP/1.1" 200 238
0:0:0:0:0:0:0:1 - - [19/Feb/2016:13:28:47 +0300] "GET /news-admin/tags HTTP/1.1" 500 17209
127.0.0.1 - - [19/Feb/2016:13:30:26 +0300] "GET / HTTP/1.1" 404 994
0:0:0:0:0:0:0:1 - - [19/Feb/2016:13:30:28 +0300] "GET /news-admin/ HTTP/1.1" 200 238
0:0:0:0:0:0:0:1 - - [19/Feb/2016:13:30:31 +0300] "GET /news-admin/tags HTTP/1.1" 500 17203
127.0.0.1 - - [19/Feb/2016:13:56:42 +0300] "GET / HTTP/1.1" 404 994
0:0:0:0:0:0:0:1 - - [19/Feb/2016:13:56:56 +0300] "GET /news-admin/ HTTP/1.1" 200 238
0:0:0:0:0:0:0:1 - - [19/Feb/2016:13:57:00 +0300] "GET /news-admin/tags HTTP/1.1" 404 992
127.0.0.1 - - [19/Feb/2016:14:20:39 +0300] "GET / HTTP/1.1" 404 994
0:0:0:0:0:0:0:1 - - [19/Feb/2016:14:20:47 +0300] "GET /news-admin/ HTTP/1.1" 200 238
0:0:0:0:0:0:0:1 - - [19/Feb/2016:14:20:51 +0300] "GET /news-admin/tags HTTP/1.1" 200 6559
0:0:0:0:0:0:0:1 - - [19/Feb/2016:14:21:07 +0300] "GET /news-admin/tags?locale=ru HTTP/1.1" 200 6559
0:0:0:0:0:0:0:1 - - [19/Feb/2016:14:21:11 +0300] "GET /news-admin/tags?locale=ru HTTP/1.1" 200 6559
0:0:0:0:0:0:0:1 - - [19/Feb/2016:14:23:25 +0300] "GET /news-admin/tags?locale=ru HTTP/1.1" 200 6603
0:0:0:0:0:0:0:1 - - [19/Feb/2016:14:23:36 +0300] "GET /favicon.ico HTTP/1.1" 404 1016
0:0:0:0:0:0:0:1 - - [19/Feb/2016:14:23:50 +0300] "GET /news-admin/tags?locale=en HTTP/1.1" 200 6559
0:0:0:0:0:0:0:1 - - [19/Feb/2016:14:24:15 +0300] "GET /news-admin/tags?locale=en HTTP/1.1" 200 6559
0:0:0:0:0:0:0:1 - - [19/Feb/2016:14:26:04 +0300] "GET /news-admin/tags?locale=en HTTP/1.1" 200 6559
0:0:0:0:0:0:0:1 - - [19/Feb/2016:14:26:07 +0300] "GET /news-admin/tags?locale=en HTTP/1.1" 200 6559
0:0:0:0:0:0:0:1 - - [19/Feb/2016:14:27:51 +0300] "GET /news-admin/tags?locale=en HTTP/1.1" 200 6531
0:0:0:0:0:0:0:1 - - [19/Feb/2016:14:27:55 +0300] "GET /news-admin/tags?locale=ru HTTP/1.1" 200 6531
127.0.0.1 - - [19/Feb/2016:14:32:23 +0300] "GET / HTTP/1.1" 404 994
0:0:0:0:0:0:0:1 - - [19/Feb/2016:14:32:24 +0300] "GET /news-admin/ HTTP/1.1" 200 238
0:0:0:0:0:0:0:1 - - [19/Feb/2016:14:32:26 +0300] "GET /news-admin/tags HTTP/1.1" 200 6531
0:0:0:0:0:0:0:1 - - [19/Feb/2016:14:32:36 +0300] "GET /news-admin/tags?locale=ru HTTP/1.1" 200 6535
127.0.0.1 - - [19/Feb/2016:14:36:52 +0300] "GET / HTTP/1.1" 404 994
0:0:0:0:0:0:0:1 - - [19/Feb/2016:14:36:53 +0300] "GET /news-admin/ HTTP/1.1" 200 238
0:0:0:0:0:0:0:1 - - [19/Feb/2016:14:36:56 +0300] "GET /news-admin/tags HTTP/1.1" 200 6531
0:0:0:0:0:0:0:1 - - [19/Feb/2016:14:37:17 +0300] "GET /news-admin/tags?locale=ru HTTP/1.1" 200 6539
127.0.0.1 - - [19/Feb/2016:14:39:23 +0300] "GET / HTTP/1.1" 404 994
0:0:0:0:0:0:0:1 - - [19/Feb/2016:14:39:24 +0300] "GET /news-admin/tags?locale=ru HTTP/1.1" 200 6535
0:0:0:0:0:0:0:1 - - [19/Feb/2016:14:39:24 +0300] "GET /news-admin/ HTTP/1.1" 200 238
0:0:0:0:0:0:0:1 - - [19/Feb/2016:14:39:35 +0300] "GET /news-admin/tags HTTP/1.1" 200 6531
0:0:0:0:0:0:0:1 - - [19/Feb/2016:14:39:47 +0300] "GET /news-admin/tags?local=ru HTTP/1.1" 200 6531
0:0:0:0:0:0:0:1 - - [19/Feb/2016:14:39:52 +0300] "GET /news-admin/tags?local=ru HTTP/1.1" 200 6531
0:0:0:0:0:0:0:1 - - [19/Feb/2016:14:39:54 +0300] "GET /news-admin/tags?local=ru HTTP/1.1" 200 6531
0:0:0:0:0:0:0:1 - - [19/Feb/2016:14:40:00 +0300] "GET /news-admin/tags?locale=ru HTTP/1.1" 200 6535
127.0.0.1 - - [19/Feb/2016:14:45:05 +0300] "GET / HTTP/1.1" 404 994
0:0:0:0:0:0:0:1 - - [19/Feb/2016:14:45:06 +0300] "GET /news-admin/ HTTP/1.1" 200 238
0:0:0:0:0:0:0:1 - - [19/Feb/2016:14:45:08 +0300] "GET /news-admin/tags HTTP/1.1" 200 6535
0:0:0:0:0:0:0:1 - - [19/Feb/2016:14:45:23 +0300] "GET /news-admin/tags?locale=en HTTP/1.1" 200 6535
0:0:0:0:0:0:0:1 - - [19/Feb/2016:14:45:27 +0300] "GET /news-admin/tags?locale=en HTTP/1.1" 200 6535
0:0:0:0:0:0:0:1 - - [19/Feb/2016:14:45:28 +0300] "GET /news-admin/tags?locale=en HTTP/1.1" 200 6535
0:0:0:0:0:0:0:1 - - [19/Feb/2016:14:45:30 +0300] "GET /news-admin/tags?locale=en HTTP/1.1" 200 6535
0:0:0:0:0:0:0:1 - - [19/Feb/2016:14:45:34 +0300] "GET /news-admin/tags?locale=en HTTP/1.1" 200 6535
0:0:0:0:0:0:0:1 - - [19/Feb/2016:14:45:35 +0300] "GET /news-admin/tags?locale=en HTTP/1.1" 200 6535
0:0:0:0:0:0:0:1 - - [19/Feb/2016:14:45:38 +0300] "GET /news-admin/tags?locale=ru HTTP/1.1" 200 6535
0:0:0:0:0:0:0:1 - - [19/Feb/2016:14:45:46 +0300] "GET /news-admin/tags?locale=ru HTTP/1.1" 200 6535
0:0:0:0:0:0:0:1 - - [19/Feb/2016:14:45:50 +0300] "GET /news-admin/tags?locale=ru HTTP/1.1" 200 6535
0:0:0:0:0:0:0:1 - - [19/Feb/2016:14:45:55 +0300] "GET /news-admin/tags?locale=ru HTTP/1.1" 200 6535
0:0:0:0:0:0:0:1 - - [19/Feb/2016:14:46:01 +0300] "GET /news-admin/tags?locale=en_En HTTP/1.1" 200 6535
0:0:0:0:0:0:0:1 - - [19/Feb/2016:14:46:09 +0300] "GET /news-admin/tags?locale=en_En HTTP/1.1" 200 6535
0:0:0:0:0:0:0:1 - - [19/Feb/2016:14:46:17 +0300] "GET /news-admin/ HTTP/1.1" 200 238
0:0:0:0:0:0:0:1 - - [19/Feb/2016:14:46:20 +0300] "GET /news-admin/tags HTTP/1.1" 200 6535
127.0.0.1 - - [19/Feb/2016:14:46:52 +0300] "GET / HTTP/1.1" 404 994
0:0:0:0:0:0:0:1 - - [19/Feb/2016:14:46:53 +0300] "GET /news-admin/ HTTP/1.1" 200 238
0:0:0:0:0:0:0:1 - - [19/Feb/2016:14:46:55 +0300] "GET /news-admin/tags HTTP/1.1" 200 6531
0:0:0:0:0:0:0:1 - - [19/Feb/2016:14:47:07 +0300] "GET /news-admin/tags?locale=ru HTTP/1.1" 200 6531
0:0:0:0:0:0:0:1 - - [19/Feb/2016:14:47:10 +0300] "GET /news-admin/tags?locale=ru HTTP/1.1" 200 6531
0:0:0:0:0:0:0:1 - - [19/Feb/2016:14:47:10 +0300] "GET /news-admin/tags?locale=ru HTTP/1.1" 200 6531
0:0:0:0:0:0:0:1 - - [19/Feb/2016:14:47:12 +0300] "GET /news-admin/tags?locale=ru HTTP/1.1" 200 6531
0:0:0:0:0:0:0:1 - - [19/Feb/2016:14:47:15 +0300] "GET /news-admin/tags?locale=ru HTTP/1.1" 200 6531
0:0:0:0:0:0:0:1 - - [19/Feb/2016:14:47:29 +0300] "GET /news-admin/tags?locale=ru HTTP/1.1" 200 6531
0:0:0:0:0:0:0:1 - - [19/Feb/2016:14:47:36 +0300] "GET /news-admin/tags?locale=en HTTP/1.1" 200 6531
0:0:0:0:0:0:0:1 - - [19/Feb/2016:14:47:41 +0300] "GET /news-admin/tags?locale=ru HTTP/1.1" 200 6531
0:0:0:0:0:0:0:1 - - [19/Feb/2016:14:47:44 +0300] "GET /news-admin/tags?locale=ru HTTP/1.1" 200 6531
127.0.0.1 - - [19/Feb/2016:14:48:42 +0300] "GET / HTTP/1.1" 404 994
0:0:0:0:0:0:0:1 - - [19/Feb/2016:14:48:43 +0300] "GET /news-admin/ HTTP/1.1" 200 238
0:0:0:0:0:0:0:1 - - [19/Feb/2016:14:48:45 +0300] "GET /news-admin/tags HTTP/1.1" 200 6531
0:0:0:0:0:0:0:1 - - [19/Feb/2016:14:48:50 +0300] "GET /news-admin/tags?locale=ru HTTP/1.1" 200 6535
0:0:0:0:0:0:0:1 - - [19/Feb/2016:14:49:41 +0300] "GET /news-admin/tags?locale=en HTTP/1.1" 200 6531
127.0.0.1 - - [19/Feb/2016:15:01:34 +0300] "GET / HTTP/1.1" 404 994
0:0:0:0:0:0:0:1 - - [19/Feb/2016:15:01:35 +0300] "GET /news-admin/ HTTP/1.1" 200 238
0:0:0:0:0:0:0:1 - - [19/Feb/2016:15:02:19 +0300] "GET /news-admin/tags?locale=ru HTTP/1.1" 200 6531
0:0:0:0:0:0:0:1 - - [19/Feb/2016:15:02:22 +0300] "GET /news-admin/tags?locale=ru HTTP/1.1" 200 6531
0:0:0:0:0:0:0:1 - - [19/Feb/2016:15:02:27 +0300] "GET /news-admin/tags HTTP/1.1" 200 6531
0:0:0:0:0:0:0:1 - - [19/Feb/2016:15:02:29 +0300] "GET /news-admin HTTP/1.1" 302 -
0:0:0:0:0:0:0:1 - - [19/Feb/2016:15:02:29 +0300] "GET /news-admin/ HTTP/1.1" 200 238
0:0:0:0:0:0:0:1 - - [19/Feb/2016:15:02:30 +0300] "GET /news-admin/tags? HTTP/1.1" 200 6531
0:0:0:0:0:0:0:1 - - [19/Feb/2016:15:02:37 +0300] "GET /news-admin/tags?locale=ru HTTP/1.1" 200 6531
0:0:0:0:0:0:0:1 - - [19/Feb/2016:15:02:38 +0300] "GET /news-admin/tags?locale=ru HTTP/1.1" 200 6531
0:0:0:0:0:0:0:1 - - [19/Feb/2016:15:02:39 +0300] "GET /news-admin/tags?locale=ru HTTP/1.1" 200 6531
127.0.0.1 - - [19/Feb/2016:15:03:42 +0300] "GET / HTTP/1.1" 404 994
0:0:0:0:0:0:0:1 - - [19/Feb/2016:15:03:43 +0300] "GET /news-admin/ HTTP/1.1" 200 238
0:0:0:0:0:0:0:1 - - [19/Feb/2016:15:03:48 +0300] "GET /news-admin/tags?locale=ru HTTP/1.1" 200 6531
0:0:0:0:0:0:0:1 - - [19/Feb/2016:15:03:51 +0300] "GET /news-admin/tags?locale=ru HTTP/1.1" 200 6531
0:0:0:0:0:0:0:1 - - [19/Feb/2016:15:03:58 +0300] "GET /news-admin HTTP/1.1" 302 -
0:0:0:0:0:0:0:1 - - [19/Feb/2016:15:03:58 +0300] "GET /news-admin/ HTTP/1.1" 200 238
0:0:0:0:0:0:0:1 - - [19/Feb/2016:15:03:59 +0300] "GET /news-admin/tags? HTTP/1.1" 200 6531
0:0:0:0:0:0:0:1 - - [19/Feb/2016:15:04:02 +0300] "GET /news-admin/tags??locale=ru HTTP/1.1" 200 6531
127.0.0.1 - - [19/Feb/2016:15:05:32 +0300] "GET / HTTP/1.1" 404 994
0:0:0:0:0:0:0:1 - - [19/Feb/2016:15:05:33 +0300] "GET /news-admin/ HTTP/1.1" 200 238
