127.0.0.1 - - [15/Mar/2016:12:18:35 +0300] "GET / HTTP/1.1" 404 994
0:0:0:0:0:0:0:1 - - [15/Mar/2016:12:18:36 +0300] "GET /news-admin/ HTTP/1.1" 200 1935
0:0:0:0:0:0:0:1 - - [15/Mar/2016:12:18:44 +0300] "POST /news-admin/j_spring_security_check HTTP/1.1" 302 -
0:0:0:0:0:0:0:1 - - [15/Mar/2016:12:18:44 +0300] "GET /news-admin/tags HTTP/1.1" 200 50696
0:0:0:0:0:0:0:1 - - [15/Mar/2016:12:19:19 +0300] "POST /news-admin/j_spring_security_logout HTTP/1.1" 302 -
0:0:0:0:0:0:0:1 - - [15/Mar/2016:12:19:19 +0300] "GET /news-admin/login?logon_msg=logout HTTP/1.1" 200 2017
127.0.0.1 - - [15/Mar/2016:12:19:34 +0300] "GET / HTTP/1.1" 404 994
0:0:0:0:0:0:0:1 - - [15/Mar/2016:12:19:35 +0300] "GET /news-admin/ HTTP/1.1" 200 1935
0:0:0:0:0:0:0:1 - - [15/Mar/2016:12:19:47 +0300] "GET /news-admin/ HTTP/1.1" 200 1935
127.0.0.1 - - [15/Mar/2016:12:32:29 +0300] "GET / HTTP/1.1" 404 994
0:0:0:0:0:0:0:1 - - [15/Mar/2016:12:32:30 +0300] "GET /news-admin/WEB-INF/views/authors.jsp HTTP/1.1" 404 992
127.0.0.1 - - [15/Mar/2016:12:33:22 +0300] "GET / HTTP/1.1" 404 994
0:0:0:0:0:0:0:1 - - [15/Mar/2016:12:33:23 +0300] "GET /news-admin/ HTTP/1.1" 200 1935
0:0:0:0:0:0:0:1 - - [15/Mar/2016:12:33:32 +0300] "POST /news-admin/j_spring_security_check HTTP/1.1" 302 -
0:0:0:0:0:0:0:1 - - [15/Mar/2016:12:33:33 +0300] "GET /news-admin/tags HTTP/1.1" 200 50696
0:0:0:0:0:0:0:1 - - [15/Mar/2016:12:33:40 +0300] "POST /news-admin/tags_update HTTP/1.1" 302 -
0:0:0:0:0:0:0:1 - - [15/Mar/2016:12:33:40 +0300] "GET /news-admin/tags HTTP/1.1" 200 50697
0:0:0:0:0:0:0:1 - - [15/Mar/2016:12:33:48 +0300] "POST /news-admin/tags_update HTTP/1.1" 302 -
0:0:0:0:0:0:0:1 - - [15/Mar/2016:12:33:48 +0300] "GET /news-admin/tags HTTP/1.1" 200 50696
0:0:0:0:0:0:0:1 - - [15/Mar/2016:12:34:02 +0300] "POST /news-admin/tags_add HTTP/1.1" 500 32040
0:0:0:0:0:0:0:1 - - [15/Mar/2016:12:34:54 +0300] "GET /news-admin/tags HTTP/1.1" 200 50696
0:0:0:0:0:0:0:1 - - [15/Mar/2016:12:35:06 +0300] "POST /news-admin/tags_add HTTP/1.1" 500 32040
127.0.0.1 - - [15/Mar/2016:12:44:56 +0300] "GET / HTTP/1.1" 404 994
0:0:0:0:0:0:0:1 - - [15/Mar/2016:12:44:57 +0300] "GET /news-admin/ HTTP/1.1" 200 1935
0:0:0:0:0:0:0:1 - - [15/Mar/2016:12:45:06 +0300] "POST /news-admin/j_spring_security_check HTTP/1.1" 302 -
0:0:0:0:0:0:0:1 - - [15/Mar/2016:12:45:07 +0300] "GET /news-admin/tags HTTP/1.1" 200 50696
0:0:0:0:0:0:0:1 - - [15/Mar/2016:12:45:12 +0300] "POST /news-admin/tags_add HTTP/1.1" 302 -
0:0:0:0:0:0:0:1 - - [15/Mar/2016:12:45:12 +0300] "GET /news-admin/tags HTTP/1.1" 200 52298
0:0:0:0:0:0:0:1 - - [15/Mar/2016:12:45:14 +0300] "POST /news-admin/tags_delete HTTP/1.1" 302 -
0:0:0:0:0:0:0:1 - - [15/Mar/2016:12:45:14 +0300] "GET /news-admin/tags HTTP/1.1" 200 50696
0:0:0:0:0:0:0:1 - - [15/Mar/2016:12:45:24 +0300] "GET /news-admin/authors HTTP/1.1" 200 2483
0:0:0:0:0:0:0:1 - - [15/Mar/2016:12:45:26 +0300] "GET /news-admin/authors HTTP/1.1" 200 2483
0:0:0:0:0:0:0:1 - - [15/Mar/2016:12:45:26 +0300] "GET /news-admin/tags HTTP/1.1" 200 50696
0:0:0:0:0:0:0:1 - - [15/Mar/2016:12:45:27 +0300] "GET /news-admin/tags HTTP/1.1" 200 50696
0:0:0:0:0:0:0:1 - - [15/Mar/2016:12:45:27 +0300] "GET /news-admin/tags HTTP/1.1" 200 50696
0:0:0:0:0:0:0:1 - - [15/Mar/2016:12:45:28 +0300] "GET /news-admin/tags HTTP/1.1" 200 50696
0:0:0:0:0:0:0:1 - - [15/Mar/2016:12:45:28 +0300] "GET /news-admin/tags HTTP/1.1" 200 50696
0:0:0:0:0:0:0:1 - - [15/Mar/2016:12:45:28 +0300] "GET /news-admin/tags HTTP/1.1" 200 50696
0:0:0:0:0:0:0:1 - - [15/Mar/2016:12:45:28 +0300] "GET /news-admin/tags HTTP/1.1" 200 50696
0:0:0:0:0:0:0:1 - - [15/Mar/2016:12:45:36 +0300] "GET /news-admin/authors HTTP/1.1" 200 2483
0:0:0:0:0:0:0:1 - - [15/Mar/2016:12:48:05 +0300] "GET /news-admin/authors HTTP/1.1" 200 2483
0:0:0:0:0:0:0:1 - - [15/Mar/2016:12:48:06 +0300] "GET /news-admin/authors HTTP/1.1" 200 2483
0:0:0:0:0:0:0:1 - - [15/Mar/2016:12:48:15 +0300] "GET /news-admin/authors HTTP/1.1" 200 132558
0:0:0:0:0:0:0:1 - - [15/Mar/2016:12:48:17 +0300] "GET /news-admin/authors HTTP/1.1" 200 132558
0:0:0:0:0:0:0:1 - - [15/Mar/2016:12:48:18 +0300] "GET /news-admin/ HTTP/1.1" 403 2456
0:0:0:0:0:0:0:1 - - [15/Mar/2016:12:48:18 +0300] "GET /news-admin/ HTTP/1.1" 403 2456
0:0:0:0:0:0:0:1 - - [15/Mar/2016:12:48:18 +0300] "GET /news-admin/ HTTP/1.1" 403 2456
0:0:0:0:0:0:0:1 - - [15/Mar/2016:12:48:26 +0300] "GET /news-admin/authors HTTP/1.1" 200 132558
0:0:0:0:0:0:0:1 - - [15/Mar/2016:12:52:06 +0300] "POST /news-admin/authors_add HTTP/1.1" 500 32136
0:0:0:0:0:0:0:1 - - [15/Mar/2016:12:52:15 +0300] "GET /news-admin/authors HTTP/1.1" 200 132558
0:0:0:0:0:0:0:1 - - [15/Mar/2016:12:52:18 +0300] "POST /news-admin/authors_add HTTP/1.1" 302 -
0:0:0:0:0:0:0:1 - - [15/Mar/2016:12:52:18 +0300] "GET /news-admin/authors HTTP/1.1" 200 134178
0:0:0:0:0:0:0:1 - - [15/Mar/2016:12:52:24 +0300] "POST /news-admin/authors_update HTTP/1.1" 302 -
0:0:0:0:0:0:0:1 - - [15/Mar/2016:12:52:24 +0300] "GET /news-admin/authors HTTP/1.1" 200 134179
0:0:0:0:0:0:0:1 - - [15/Mar/2016:12:52:35 +0300] "POST /news-admin/authors_update HTTP/1.1" 302 -
0:0:0:0:0:0:0:1 - - [15/Mar/2016:12:52:35 +0300] "GET /news-admin/authors HTTP/1.1" 200 134177
0:0:0:0:0:0:0:1 - - [15/Mar/2016:12:52:39 +0300] "POST /news-admin/authors_expire HTTP/1.1" 302 -
0:0:0:0:0:0:0:1 - - [15/Mar/2016:12:52:40 +0300] "GET /news-admin/authors HTTP/1.1" 200 132558
127.0.0.1 - - [15/Mar/2016:17:05:36 +0300] "GET / HTTP/1.1" 404 994
0:0:0:0:0:0:0:1 - - [15/Mar/2016:17:05:36 +0300] "GET /news-admin/ HTTP/1.1" 200 1935
127.0.0.1 - - [15/Mar/2016:19:23:59 +0300] "GET / HTTP/1.1" 404 994
0:0:0:0:0:0:0:1 - - [15/Mar/2016:19:23:59 +0300] "GET /news-admin/WEB-INF/classes/by/epam/newsmanagement/controller/NewsController.java HTTP/1.1" 404 992
0:0:0:0:0:0:0:1 - - [15/Mar/2016:19:24:10 +0300] "GET /news-admin/ HTTP/1.1" 200 1935
0:0:0:0:0:0:0:1 - - [15/Mar/2016:19:24:16 +0300] "POST /news-admin/j_spring_security_check HTTP/1.1" 302 -
0:0:0:0:0:0:0:1 - - [15/Mar/2016:19:24:16 +0300] "GET /news-admin/tags HTTP/1.1" 200 50696
0:0:0:0:0:0:0:1 - - [15/Mar/2016:19:24:22 +0300] "GET /news-admin/news HTTP/1.1" 404 992
127.0.0.1 - - [15/Mar/2016:19:26:43 +0300] "GET / HTTP/1.1" 404 994
0:0:0:0:0:0:0:1 - - [15/Mar/2016:19:26:44 +0300] "GET /news-admin/ HTTP/1.1" 403 2456
0:0:0:0:0:0:0:1 - - [15/Mar/2016:19:26:50 +0300] "POST /news-admin/j_spring_security_check HTTP/1.1" 302 -
0:0:0:0:0:0:0:1 - - [15/Mar/2016:19:26:50 +0300] "GET /news-admin/tags HTTP/1.1" 200 50696
0:0:0:0:0:0:0:1 - - [15/Mar/2016:19:26:56 +0300] "GET /news-admin/news HTTP/1.1" 404 992
127.0.0.1 - - [15/Mar/2016:19:27:55 +0300] "GET / HTTP/1.1" 404 994
0:0:0:0:0:0:0:1 - - [15/Mar/2016:19:27:56 +0300] "GET /news-admin/ HTTP/1.1" 403 2456
0:0:0:0:0:0:0:1 - - [15/Mar/2016:19:28:02 +0300] "POST /news-admin/j_spring_security_check HTTP/1.1" 302 -
0:0:0:0:0:0:0:1 - - [15/Mar/2016:19:28:02 +0300] "GET /news-admin/tags HTTP/1.1" 200 50696
0:0:0:0:0:0:0:1 - - [15/Mar/2016:19:28:06 +0300] "GET /news-admin/news HTTP/1.1" 404 992
0:0:0:0:0:0:0:1 - - [15/Mar/2016:19:28:10 +0300] "GET /news-admin/news/ HTTP/1.1" 404 992
0:0:0:0:0:0:0:1 - - [15/Mar/2016:19:28:37 +0300] "GET /news-admin/news/1 HTTP/1.1" 500 42336
0:0:0:0:0:0:0:1 - - [15/Mar/2016:19:28:40 +0300] "GET /news-admin/news/1 HTTP/1.1" 500 42336
0:0:0:0:0:0:0:1 - - [15/Mar/2016:19:28:40 +0300] "GET /news-admin/news/1 HTTP/1.1" 500 42336
127.0.0.1 - - [15/Mar/2016:19:31:11 +0300] "GET / HTTP/1.1" 404 994
0:0:0:0:0:0:0:1 - - [15/Mar/2016:19:31:12 +0300] "GET /news-admin/ HTTP/1.1" 200 1935
0:0:0:0:0:0:0:1 - - [15/Mar/2016:19:31:18 +0300] "POST /news-admin/j_spring_security_check HTTP/1.1" 302 -
0:0:0:0:0:0:0:1 - - [15/Mar/2016:19:31:18 +0300] "GET /news-admin/login?logon_msg=logpasw HTTP/1.1" 200 2036
0:0:0:0:0:0:0:1 - - [15/Mar/2016:19:31:24 +0300] "POST /news-admin/j_spring_security_check HTTP/1.1" 302 -
0:0:0:0:0:0:0:1 - - [15/Mar/2016:19:31:24 +0300] "GET /news-admin/tags HTTP/1.1" 200 50696
0:0:0:0:0:0:0:1 - - [15/Mar/2016:19:31:31 +0300] "GET /news-admin/news/1 HTTP/1.1" 500 34448
0:0:0:0:0:0:0:1 - - [15/Mar/2016:19:34:43 +0300] "GET /news-admin/news/1 HTTP/1.1" 200 3280
0:0:0:0:0:0:0:1 - - [15/Mar/2016:19:35:14 +0300] "GET /news-admin/news/1?locale=ru HTTP/1.1" 200 3280
0:0:0:0:0:0:0:1 - - [15/Mar/2016:19:35:16 +0300] "GET /news-admin/news/1?locale=en HTTP/1.1" 200 3280
0:0:0:0:0:0:0:1 - - [15/Mar/2016:19:35:17 +0300] "GET /news-admin/news/1?locale=ru HTTP/1.1" 200 3280
0:0:0:0:0:0:0:1 - - [15/Mar/2016:19:35:21 +0300] "GET /news-admin/news/1?locale=ru HTTP/1.1" 200 3280
0:0:0:0:0:0:0:1 - - [15/Mar/2016:19:35:22 +0300] "GET /news-admin/news/1?locale=ru HTTP/1.1" 200 3280
0:0:0:0:0:0:0:1 - - [15/Mar/2016:19:35:25 +0300] "GET /news-admin/news/1?locale=ru HTTP/1.1" 200 3280
0:0:0:0:0:0:0:1 - - [15/Mar/2016:19:36:41 +0300] "GET /news-admin/news/1?locale=ru HTTP/1.1" 200 3215
0:0:0:0:0:0:0:1 - - [15/Mar/2016:19:36:51 +0300] "GET /news-admin/news/1?locale=ru HTTP/1.1" 200 3215
0:0:0:0:0:0:0:1 - - [15/Mar/2016:19:36:52 +0300] "GET /news-admin/news/1?locale=ru HTTP/1.1" 200 3215
0:0:0:0:0:0:0:1 - - [15/Mar/2016:19:39:28 +0300] "GET /news-admin/news/1?locale=ru HTTP/1.1" 200 3215
0:0:0:0:0:0:0:1 - - [15/Mar/2016:19:39:30 +0300] "GET /news-admin/news/1?locale=en HTTP/1.1" 200 3215
0:0:0:0:0:0:0:1 - - [15/Mar/2016:19:39:32 +0300] "GET /news-admin/news/1?locale=ru HTTP/1.1" 200 3215
0:0:0:0:0:0:0:1 - - [15/Mar/2016:19:39:45 +0300] "GET /news-admin/tags HTTP/1.1" 200 50696
0:0:0:0:0:0:0:1 - - [15/Mar/2016:19:39:48 +0300] "GET /news-admin/tags?locale=ru HTTP/1.1" 200 50696
0:0:0:0:0:0:0:1 - - [15/Mar/2016:19:39:50 +0300] "GET /news-admin/tags?locale=en HTTP/1.1" 200 50696
0:0:0:0:0:0:0:1 - - [15/Mar/2016:19:39:51 +0300] "GET /news-admin/tags?locale=ru HTTP/1.1" 200 50696
127.0.0.1 - - [15/Mar/2016:19:40:55 +0300] "GET / HTTP/1.1" 404 994
0:0:0:0:0:0:0:1 - - [15/Mar/2016:19:40:56 +0300] "GET /news-admin/ HTTP/1.1" 200 1935
0:0:0:0:0:0:0:1 - - [15/Mar/2016:19:41:02 +0300] "POST /news-admin/j_spring_security_check HTTP/1.1" 302 -
0:0:0:0:0:0:0:1 - - [15/Mar/2016:19:41:02 +0300] "GET /news-admin/tags HTTP/1.1" 200 50696
0:0:0:0:0:0:0:1 - - [15/Mar/2016:19:41:04 +0300] "GET /news-admin/tags?locale=ru HTTP/1.1" 200 50696
0:0:0:0:0:0:0:1 - - [15/Mar/2016:19:41:05 +0300] "GET /news-admin/tags?locale=en HTTP/1.1" 200 50696
0:0:0:0:0:0:0:1 - - [15/Mar/2016:19:41:06 +0300] "GET /news-admin/tags?locale=ru HTTP/1.1" 200 50696
0:0:0:0:0:0:0:1 - - [15/Mar/2016:19:41:07 +0300] "GET /news-admin/tags?locale=ru HTTP/1.1" 200 50696
127.0.0.1 - - [15/Mar/2016:19:43:09 +0300] "GET / HTTP/1.1" 404 994
0:0:0:0:0:0:0:1 - - [15/Mar/2016:19:43:09 +0300] "GET /news-admin/ HTTP/1.1" 403 2456
0:0:0:0:0:0:0:1 - - [15/Mar/2016:19:43:15 +0300] "POST /news-admin/j_spring_security_check HTTP/1.1" 302 -
0:0:0:0:0:0:0:1 - - [15/Mar/2016:19:43:15 +0300] "GET /news-admin/tags HTTP/1.1" 200 50696
0:0:0:0:0:0:0:1 - - [15/Mar/2016:19:43:18 +0300] "GET /news-admin/tags?locale=ru HTTP/1.1" 200 50696
0:0:0:0:0:0:0:1 - - [15/Mar/2016:19:43:19 +0300] "GET /news-admin/tags?locale=en HTTP/1.1" 200 50696
0:0:0:0:0:0:0:1 - - [15/Mar/2016:19:43:20 +0300] "GET /news-admin/tags?locale=ru HTTP/1.1" 200 50696
0:0:0:0:0:0:0:1 - - [15/Mar/2016:19:43:55 +0300] "GET /news-admin/tags?locale=ru HTTP/1.1" 200 50696
0:0:0:0:0:0:0:1 - - [15/Mar/2016:19:43:56 +0300] "GET /news-admin/tags?locale=en HTTP/1.1" 200 50696
0:0:0:0:0:0:0:1 - - [15/Mar/2016:19:43:57 +0300] "GET /news-admin/tags?locale=ru HTTP/1.1" 200 50696
127.0.0.1 - - [15/Mar/2016:19:45:26 +0300] "GET / HTTP/1.1" 404 994
0:0:0:0:0:0:0:1 - - [15/Mar/2016:19:45:27 +0300] "GET /news-admin/ HTTP/1.1" 403 2456
0:0:0:0:0:0:0:1 - - [15/Mar/2016:19:45:34 +0300] "POST /news-admin/j_spring_security_check HTTP/1.1" 302 -
0:0:0:0:0:0:0:1 - - [15/Mar/2016:19:45:34 +0300] "GET /news-admin/tags HTTP/1.1" 200 50696
0:0:0:0:0:0:0:1 - - [15/Mar/2016:19:45:35 +0300] "GET /news-admin/tags?locale=ru HTTP/1.1" 200 50696
0:0:0:0:0:0:0:1 - - [15/Mar/2016:19:45:37 +0300] "GET /news-admin/tags?locale=en HTTP/1.1" 200 50696
0:0:0:0:0:0:0:1 - - [15/Mar/2016:19:45:38 +0300] "GET /news-admin/tags?locale=ru HTTP/1.1" 200 50696
0:0:0:0:0:0:0:1 - - [15/Mar/2016:19:45:39 +0300] "GET /news-admin/tags?locale=en HTTP/1.1" 200 50696
0:0:0:0:0:0:0:1 - - [15/Mar/2016:19:45:40 +0300] "GET /news-admin/tags?locale=ru HTTP/1.1" 200 50696
0:0:0:0:0:0:0:1 - - [15/Mar/2016:19:45:40 +0300] "GET /news-admin/tags?locale=en HTTP/1.1" 200 50696
0:0:0:0:0:0:0:1 - - [15/Mar/2016:19:45:42 +0300] "GET /news-admin/tags?locale=en HTTP/1.1" 200 50696
0:0:0:0:0:0:0:1 - - [15/Mar/2016:19:50:59 +0300] "GET /news-admin/tags?locale=en HTTP/1.1" 200 50696
0:0:0:0:0:0:0:1 - - [15/Mar/2016:19:51:00 +0300] "GET /news-admin/tags?locale=ru HTTP/1.1" 200 50696
0:0:0:0:0:0:0:1 - - [15/Mar/2016:19:51:02 +0300] "GET /news-admin/tags?locale=en HTTP/1.1" 200 50696
0:0:0:0:0:0:0:1 - - [15/Mar/2016:19:51:03 +0300] "GET /news-admin/tags?locale=ru HTTP/1.1" 200 50696
0:0:0:0:0:0:0:1 - - [15/Mar/2016:19:51:13 +0300] "GET /news-admin/tags?locale=ru HTTP/1.1" 200 50696
0:0:0:0:0:0:0:1 - - [15/Mar/2016:19:51:16 +0300] "GET /news-admin/tags?locale=ru HTTP/1.1" 200 50696
0:0:0:0:0:0:0:1 - - [15/Mar/2016:19:51:16 +0300] "GET /news-admin/tags?locale=ru HTTP/1.1" 200 50696
0:0:0:0:0:0:0:1 - - [15/Mar/2016:19:51:17 +0300] "GET /news-admin/tags?locale=ru HTTP/1.1" 200 50696
127.0.0.1 - - [15/Mar/2016:19:52:05 +0300] "GET / HTTP/1.1" 404 994
0:0:0:0:0:0:0:1 - - [15/Mar/2016:19:52:06 +0300] "GET /news-admin/ HTTP/1.1" 403 2456
0:0:0:0:0:0:0:1 - - [15/Mar/2016:19:52:12 +0300] "POST /news-admin/j_spring_security_check HTTP/1.1" 302 -
0:0:0:0:0:0:0:1 - - [15/Mar/2016:19:52:12 +0300] "GET /news-admin/tags HTTP/1.1" 200 50700
0:0:0:0:0:0:0:1 - - [15/Mar/2016:19:52:16 +0300] "GET /news-admin/tags?locale=en HTTP/1.1" 200 50700
0:0:0:0:0:0:0:1 - - [15/Mar/2016:19:52:18 +0300] "GET /news-admin/tags?locale=ru HTTP/1.1" 200 50700
0:0:0:0:0:0:0:1 - - [15/Mar/2016:19:52:19 +0300] "GET /news-admin/tags?locale=en HTTP/1.1" 200 50700
0:0:0:0:0:0:0:1 - - [15/Mar/2016:19:52:20 +0300] "GET /news-admin/tags?locale=ru HTTP/1.1" 200 50700
0:0:0:0:0:0:0:1 - - [15/Mar/2016:19:52:25 +0300] "POST /news-admin/j_spring_security_logout HTTP/1.1" 302 -
0:0:0:0:0:0:0:1 - - [15/Mar/2016:19:52:25 +0300] "GET /news-admin/login?logon_msg=logout HTTP/1.1" 200 2017
127.0.0.1 - - [15/Mar/2016:19:53:19 +0300] "GET / HTTP/1.1" 404 994
0:0:0:0:0:0:0:1 - - [15/Mar/2016:19:53:19 +0300] "GET /news-admin/ HTTP/1.1" 200 1935
0:0:0:0:0:0:0:1 - - [15/Mar/2016:19:53:25 +0300] "POST /news-admin/j_spring_security_check HTTP/1.1" 302 -
0:0:0:0:0:0:0:1 - - [15/Mar/2016:19:53:25 +0300] "GET /news-admin/tags HTTP/1.1" 200 50700
0:0:0:0:0:0:0:1 - - [15/Mar/2016:19:53:27 +0300] "GET /news-admin/tags?locale=en HTTP/1.1" 200 50700
0:0:0:0:0:0:0:1 - - [15/Mar/2016:19:53:29 +0300] "GET /news-admin/tags?locale=ru HTTP/1.1" 200 50700
0:0:0:0:0:0:0:1 - - [15/Mar/2016:19:53:31 +0300] "GET /news-admin/tags?locale=en HTTP/1.1" 200 50700
0:0:0:0:0:0:0:1 - - [15/Mar/2016:19:53:32 +0300] "POST /news-admin/j_spring_security_logout HTTP/1.1" 302 -
0:0:0:0:0:0:0:1 - - [15/Mar/2016:19:53:32 +0300] "GET /news-admin/login?logon_msg=logout HTTP/1.1" 200 2017
127.0.0.1 - - [15/Mar/2016:19:54:11 +0300] "GET / HTTP/1.1" 404 994
0:0:0:0:0:0:0:1 - - [15/Mar/2016:19:54:11 +0300] "GET /news-admin/ HTTP/1.1" 200 1935
0:0:0:0:0:0:0:1 - - [15/Mar/2016:19:54:17 +0300] "POST /news-admin/j_spring_security_check HTTP/1.1" 302 -
0:0:0:0:0:0:0:1 - - [15/Mar/2016:19:54:17 +0300] "GET /news-admin/tags HTTP/1.1" 200 50700
0:0:0:0:0:0:0:1 - - [15/Mar/2016:19:54:19 +0300] "GET /news-admin/tags?locale=en HTTP/1.1" 200 50700
0:0:0:0:0:0:0:1 - - [15/Mar/2016:19:54:21 +0300] "GET /news-admin/tags?locale=ru HTTP/1.1" 200 50700
127.0.0.1 - - [15/Mar/2016:19:57:31 +0300] "GET / HTTP/1.1" 404 994
0:0:0:0:0:0:0:1 - - [15/Mar/2016:19:57:32 +0300] "GET /news-admin/ HTTP/1.1" 403 2456
0:0:0:0:0:0:0:1 - - [15/Mar/2016:19:57:38 +0300] "POST /news-admin/j_spring_security_check HTTP/1.1" 302 -
0:0:0:0:0:0:0:1 - - [15/Mar/2016:19:57:38 +0300] "GET /news-admin/tags HTTP/1.1" 200 50700
0:0:0:0:0:0:0:1 - - [15/Mar/2016:19:57:40 +0300] "GET /news-admin/tags?locale=en HTTP/1.1" 200 50700
0:0:0:0:0:0:0:1 - - [15/Mar/2016:19:57:43 +0300] "GET /news-admin/tags?locale=ru HTTP/1.1" 200 50700
0:0:0:0:0:0:0:1 - - [15/Mar/2016:19:57:45 +0300] "GET /news-admin/tags?locale=en HTTP/1.1" 200 50700
0:0:0:0:0:0:0:1 - - [15/Mar/2016:19:57:45 +0300] "GET /news-admin/tags?locale=en HTTP/1.1" 200 50700
0:0:0:0:0:0:0:1 - - [15/Mar/2016:19:57:46 +0300] "GET /news-admin/tags?locale=ru HTTP/1.1" 200 50700
0:0:0:0:0:0:0:1 - - [15/Mar/2016:19:57:47 +0300] "GET /news-admin/tags?locale=en HTTP/1.1" 200 50700
127.0.0.1 - - [15/Mar/2016:19:58:58 +0300] "GET / HTTP/1.1" 404 994
0:0:0:0:0:0:0:1 - - [15/Mar/2016:19:58:59 +0300] "GET /news-admin/ HTTP/1.1" 403 2456
0:0:0:0:0:0:0:1 - - [15/Mar/2016:19:59:05 +0300] "POST /news-admin/j_spring_security_check HTTP/1.1" 302 -
0:0:0:0:0:0:0:1 - - [15/Mar/2016:19:59:05 +0300] "GET /news-admin/tags HTTP/1.1" 200 50700
0:0:0:0:0:0:0:1 - - [15/Mar/2016:19:59:07 +0300] "GET /news-admin/tags?locale=en HTTP/1.1" 200 50700
0:0:0:0:0:0:0:1 - - [15/Mar/2016:19:59:09 +0300] "GET /news-admin/tags?locale=ru HTTP/1.1" 200 50700
0:0:0:0:0:0:0:1 - - [15/Mar/2016:19:59:10 +0300] "GET /news-admin/tags?locale=en HTTP/1.1" 200 50700
0:0:0:0:0:0:0:1 - - [15/Mar/2016:19:59:11 +0300] "GET /news-admin/tags?locale=ru HTTP/1.1" 200 50700
0:0:0:0:0:0:0:1 - - [15/Mar/2016:19:59:12 +0300] "GET /news-admin/tags?locale=en HTTP/1.1" 200 50700
0:0:0:0:0:0:0:1 - - [15/Mar/2016:19:59:12 +0300] "GET /news-admin/tags?locale=ru HTTP/1.1" 200 50700
0:0:0:0:0:0:0:1 - - [15/Mar/2016:19:59:13 +0300] "GET /news-admin/tags?locale=en HTTP/1.1" 200 50700
0:0:0:0:0:0:0:1 - - [15/Mar/2016:19:59:13 +0300] "GET /news-admin/tags?locale=ru HTTP/1.1" 200 50700
0:0:0:0:0:0:0:1 - - [15/Mar/2016:19:59:14 +0300] "GET /news-admin/tags?locale=en HTTP/1.1" 200 50700
127.0.0.1 - - [15/Mar/2016:19:59:59 +0300] "GET / HTTP/1.1" 404 994
0:0:0:0:0:0:0:1 - - [15/Mar/2016:20:00:00 +0300] "GET /news-admin/ HTTP/1.1" 403 2456
0:0:0:0:0:0:0:1 - - [15/Mar/2016:20:00:05 +0300] "POST /news-admin/j_spring_security_check HTTP/1.1" 302 -
0:0:0:0:0:0:0:1 - - [15/Mar/2016:20:00:05 +0300] "GET /news-admin/tags HTTP/1.1" 200 50700
0:0:0:0:0:0:0:1 - - [15/Mar/2016:20:00:08 +0300] "GET /news-admin/tags?locale=en HTTP/1.1" 200 50700
0:0:0:0:0:0:0:1 - - [15/Mar/2016:20:00:09 +0300] "GET /news-admin/tags?locale=en HTTP/1.1" 200 50700
0:0:0:0:0:0:0:1 - - [15/Mar/2016:20:00:10 +0300] "GET /news-admin/tags?locale=ru HTTP/1.1" 200 50700
0:0:0:0:0:0:0:1 - - [15/Mar/2016:20:00:11 +0300] "GET /news-admin/tags?locale=en HTTP/1.1" 200 50700
0:0:0:0:0:0:0:1 - - [15/Mar/2016:20:00:11 +0300] "GET /news-admin/tags?locale=en HTTP/1.1" 200 50700
0:0:0:0:0:0:0:1 - - [15/Mar/2016:20:00:12 +0300] "GET /news-admin/tags?locale=en HTTP/1.1" 200 50700
0:0:0:0:0:0:0:1 - - [15/Mar/2016:20:00:13 +0300] "GET /news-admin/tags?locale=ru HTTP/1.1" 200 50700
0:0:0:0:0:0:0:1 - - [15/Mar/2016:20:00:13 +0300] "GET /news-admin/tags?locale=en HTTP/1.1" 200 50700
