127.0.0.1 - - [10/Mar/2016:09:44:40 +0300] "GET / HTTP/1.1" 404 994
0:0:0:0:0:0:0:1 - - [10/Mar/2016:09:44:41 +0300] "GET /news-admin/ HTTP/1.1" 404 1016
127.0.0.1 - - [10/Mar/2016:09:46:03 +0300] "GET / HTTP/1.1" 404 994
0:0:0:0:0:0:0:1 - - [10/Mar/2016:09:46:03 +0300] "GET /news-admin/ HTTP/1.1" 404 1016
127.0.0.1 - - [10/Mar/2016:10:02:27 +0300] "GET / HTTP/1.1" 404 994
0:0:0:0:0:0:0:1 - - [10/Mar/2016:10:02:28 +0300] "GET /news-admin/ HTTP/1.1" 302 -
0:0:0:0:0:0:0:1 - - [10/Mar/2016:10:02:28 +0300] "GET /news-admin/login HTTP/1.1" 200 546
0:0:0:0:0:0:0:1 - - [10/Mar/2016:10:02:48 +0300] "POST /news-admin/login HTTP/1.1" 302 -
0:0:0:0:0:0:0:1 - - [10/Mar/2016:10:02:48 +0300] "GET /news-admin/ HTTP/1.1" 200 232
0:0:0:0:0:0:0:1 - - [10/Mar/2016:10:02:50 +0300] "GET /news-admin/tags HTTP/1.1" 200 6532
127.0.0.1 - - [10/Mar/2016:10:38:52 +0300] "GET / HTTP/1.1" 404 994
0:0:0:0:0:0:0:1 - - [10/Mar/2016:10:38:52 +0300] "GET /news-admin/ HTTP/1.1" 404 1016
127.0.0.1 - - [10/Mar/2016:10:39:41 +0300] "GET / HTTP/1.1" 404 994
0:0:0:0:0:0:0:1 - - [10/Mar/2016:10:39:41 +0300] "GET /news-admin/ HTTP/1.1" 200 232
0:0:0:0:0:0:0:1 - - [10/Mar/2016:10:39:44 +0300] "GET /news-admin/tags HTTP/1.1" 302 -
0:0:0:0:0:0:0:1 - - [10/Mar/2016:10:39:44 +0300] "GET /news-admin/login HTTP/1.1" 404 992
0:0:0:0:0:0:0:1 - - [10/Mar/2016:10:40:00 +0300] "GET /news-admin/login HTTP/1.1" 404 992
127.0.0.1 - - [10/Mar/2016:10:43:28 +0300] "GET / HTTP/1.1" 404 994
0:0:0:0:0:0:0:1 - - [10/Mar/2016:10:43:29 +0300] "GET /news-admin/ HTTP/1.1" 200 232
0:0:0:0:0:0:0:1 - - [10/Mar/2016:10:43:31 +0300] "GET /news-admin/tags HTTP/1.1" 200 6532
0:0:0:0:0:0:0:1 - - [10/Mar/2016:10:43:39 +0300] "GET /news-admin/login HTTP/1.1" 404 992
127.0.0.1 - - [10/Mar/2016:10:46:42 +0300] "GET / HTTP/1.1" 404 994
0:0:0:0:0:0:0:1 - - [10/Mar/2016:10:46:43 +0300] "GET /news-admin/ HTTP/1.1" 200 232
0:0:0:0:0:0:0:1 - - [10/Mar/2016:10:46:49 +0300] "GET /news-admin/login HTTP/1.1" 200 1397
0:0:0:0:0:0:0:1 - - [10/Mar/2016:10:46:52 +0300] "GET /news-admin/login HTTP/1.1" 200 1397
0:0:0:0:0:0:0:1 - - [10/Mar/2016:10:46:52 +0300] "GET /news-admin/ HTTP/1.1" 200 232
0:0:0:0:0:0:0:1 - - [10/Mar/2016:10:46:52 +0300] "GET /news-admin/ HTTP/1.1" 200 232
0:0:0:0:0:0:0:1 - - [10/Mar/2016:10:46:52 +0300] "GET /news-admin/ HTTP/1.1" 200 232
127.0.0.1 - - [10/Mar/2016:10:48:49 +0300] "GET / HTTP/1.1" 404 994
0:0:0:0:0:0:0:1 - - [10/Mar/2016:10:48:49 +0300] "GET /news-admin/ HTTP/1.1" 200 232
0:0:0:0:0:0:0:1 - - [10/Mar/2016:10:48:52 +0300] "GET /news-admin/tags HTTP/1.1" 302 -
0:0:0:0:0:0:0:1 - - [10/Mar/2016:10:48:52 +0300] "GET /news-admin/login HTTP/1.1" 200 1397
0:0:0:0:0:0:0:1 - - [10/Mar/2016:10:49:07 +0300] "POST /news-admin/j_spring_security_check HTTP/1.1" 403 1116
127.0.0.1 - - [10/Mar/2016:11:10:11 +0300] "GET / HTTP/1.1" 404 994
0:0:0:0:0:0:0:1 - - [10/Mar/2016:11:10:12 +0300] "GET /news-admin/ HTTP/1.1" 200 232
0:0:0:0:0:0:0:1 - - [10/Mar/2016:11:10:17 +0300] "GET /news-admin/ HTTP/1.1" 200 232
0:0:0:0:0:0:0:1 - - [10/Mar/2016:11:10:54 +0300] "GET /news-admin/login HTTP/1.1" 200 1397
0:0:0:0:0:0:0:1 - - [10/Mar/2016:11:11:00 +0300] "GET /news-admin/ HTTP/1.1" 200 232
0:0:0:0:0:0:0:1 - - [10/Mar/2016:11:11:01 +0300] "GET /news-admin/tags HTTP/1.1" 302 -
0:0:0:0:0:0:0:1 - - [10/Mar/2016:11:11:01 +0300] "GET /news-admin/login HTTP/1.1" 200 1397
0:0:0:0:0:0:0:1 - - [10/Mar/2016:11:13:54 +0300] "POST /news-admin/j_spring_security_check HTTP/1.1" 403 1116
127.0.0.1 - - [10/Mar/2016:11:16:42 +0300] "GET / HTTP/1.1" 404 994
0:0:0:0:0:0:0:1 - - [10/Mar/2016:11:16:42 +0300] "GET /news-admin/ HTTP/1.1" 200 232
0:0:0:0:0:0:0:1 - - [10/Mar/2016:11:16:44 +0300] "GET /news-admin/tags HTTP/1.1" 302 -
0:0:0:0:0:0:0:1 - - [10/Mar/2016:11:16:44 +0300] "GET /news-admin/login HTTP/1.1" 200 1397
0:0:0:0:0:0:0:1 - - [10/Mar/2016:11:16:49 +0300] "POST /news-admin/j_spring_security_check HTTP/1.1" 404 992
0:0:0:0:0:0:0:1 - - [10/Mar/2016:11:17:14 +0300] "GET /news-admin/ HTTP/1.1" 200 232
0:0:0:0:0:0:0:1 - - [10/Mar/2016:11:17:15 +0300] "GET /news-admin/tags HTTP/1.1" 302 -
0:0:0:0:0:0:0:1 - - [10/Mar/2016:11:17:15 +0300] "GET /news-admin/login HTTP/1.1" 200 1397
0:0:0:0:0:0:0:1 - - [10/Mar/2016:11:17:22 +0300] "POST /news-admin/j_spring_security_check HTTP/1.1" 404 992
127.0.0.1 - - [10/Mar/2016:11:23:00 +0300] "GET / HTTP/1.1" 404 994
0:0:0:0:0:0:0:1 - - [10/Mar/2016:11:23:00 +0300] "GET /news-admin/ HTTP/1.1" 200 232
0:0:0:0:0:0:0:1 - - [10/Mar/2016:11:23:03 +0300] "GET /news-admin/tags HTTP/1.1" 302 -
0:0:0:0:0:0:0:1 - - [10/Mar/2016:11:23:03 +0300] "GET /news-admin/login HTTP/1.1" 200 1397
0:0:0:0:0:0:0:1 - - [10/Mar/2016:11:23:08 +0300] "POST /news-admin/j_spring_security_check HTTP/1.1" 404 992
127.0.0.1 - - [10/Mar/2016:11:34:36 +0300] "GET / HTTP/1.1" 404 994
0:0:0:0:0:0:0:1 - - [10/Mar/2016:11:34:36 +0300] "GET /news-admin/ HTTP/1.1" 200 232
0:0:0:0:0:0:0:1 - - [10/Mar/2016:11:34:37 +0300] "GET /news-admin/tags HTTP/1.1" 302 -
0:0:0:0:0:0:0:1 - - [10/Mar/2016:11:34:38 +0300] "GET /news-admin/login HTTP/1.1" 200 1391
0:0:0:0:0:0:0:1 - - [10/Mar/2016:11:34:44 +0300] "POST /news-admin/j_spring_security_check HTTP/1.1" 404 992
127.0.0.1 - - [10/Mar/2016:12:52:46 +0300] "GET / HTTP/1.1" 404 994
0:0:0:0:0:0:0:1 - - [10/Mar/2016:12:52:47 +0300] "GET /news-admin/ HTTP/1.1" 200 232
0:0:0:0:0:0:0:1 - - [10/Mar/2016:12:52:48 +0300] "GET /news-admin/tags HTTP/1.1" 500 10900
127.0.0.1 - - [10/Mar/2016:12:53:29 +0300] "GET / HTTP/1.1" 404 994
0:0:0:0:0:0:0:1 - - [10/Mar/2016:12:53:30 +0300] "GET /news-admin/ HTTP/1.1" 200 232
0:0:0:0:0:0:0:1 - - [10/Mar/2016:12:53:31 +0300] "GET /news-admin/tags HTTP/1.1" 500 10856
127.0.0.1 - - [10/Mar/2016:12:54:05 +0300] "GET / HTTP/1.1" 404 994
0:0:0:0:0:0:0:1 - - [10/Mar/2016:12:54:06 +0300] "GET /news-admin/ HTTP/1.1" 200 232
0:0:0:0:0:0:0:1 - - [10/Mar/2016:12:54:07 +0300] "GET /news-admin/tags HTTP/1.1" 302 -
0:0:0:0:0:0:0:1 - - [10/Mar/2016:12:54:07 +0300] "GET /news-admin/login HTTP/1.1" 500 10972
127.0.0.1 - - [10/Mar/2016:12:55:01 +0300] "GET / HTTP/1.1" 404 994
0:0:0:0:0:0:0:1 - - [10/Mar/2016:12:55:02 +0300] "GET /news-admin/ HTTP/1.1" 200 232
0:0:0:0:0:0:0:1 - - [10/Mar/2016:12:55:03 +0300] "GET /news-admin/tags HTTP/1.1" 302 -
0:0:0:0:0:0:0:1 - - [10/Mar/2016:12:55:03 +0300] "GET /news-admin/login HTTP/1.1" 200 1391
0:0:0:0:0:0:0:1 - - [10/Mar/2016:12:55:08 +0300] "POST /news-admin/j_spring_security_check HTTP/1.1" 403 1116
127.0.0.1 - - [10/Mar/2016:12:56:05 +0300] "GET / HTTP/1.1" 404 994
0:0:0:0:0:0:0:1 - - [10/Mar/2016:12:56:06 +0300] "GET /news-admin/ HTTP/1.1" 200 232
0:0:0:0:0:0:0:1 - - [10/Mar/2016:12:56:06 +0300] "GET /news-admin/tags HTTP/1.1" 302 -
0:0:0:0:0:0:0:1 - - [10/Mar/2016:12:56:06 +0300] "GET /news-admin/login HTTP/1.1" 200 1391
0:0:0:0:0:0:0:1 - - [10/Mar/2016:12:56:11 +0300] "POST /news-admin/j_spring_security_check HTTP/1.1" 404 992
127.0.0.1 - - [10/Mar/2016:12:57:17 +0300] "GET / HTTP/1.1" 404 994
0:0:0:0:0:0:0:1 - - [10/Mar/2016:12:57:17 +0300] "GET /news-admin/ HTTP/1.1" 200 232
0:0:0:0:0:0:0:1 - - [10/Mar/2016:12:57:21 +0300] "GET /news-admin/failure HTTP/1.1" 200 1390
0:0:0:0:0:0:0:1 - - [10/Mar/2016:12:57:24 +0300] "GET /news-admin/failure HTTP/1.1" 200 1390
0:0:0:0:0:0:0:1 - - [10/Mar/2016:12:57:25 +0300] "GET /news-admin/ HTTP/1.1" 200 232
0:0:0:0:0:0:0:1 - - [10/Mar/2016:12:57:25 +0300] "GET /news-admin/ HTTP/1.1" 200 232
0:0:0:0:0:0:0:1 - - [10/Mar/2016:12:57:29 +0300] "GET /news-admin/failure HTTP/1.1" 200 1390
127.0.0.1 - - [10/Mar/2016:13:00:27 +0300] "GET / HTTP/1.1" 404 994
0:0:0:0:0:0:0:1 - - [10/Mar/2016:13:00:27 +0300] "GET /news-admin/ HTTP/1.1" 200 232
0:0:0:0:0:0:0:1 - - [10/Mar/2016:13:00:30 +0300] "GET /news-admin/tags HTTP/1.1" 302 -
0:0:0:0:0:0:0:1 - - [10/Mar/2016:13:00:30 +0300] "GET /news-admin/login HTTP/1.1" 200 1391
0:0:0:0:0:0:0:1 - - [10/Mar/2016:13:00:35 +0300] "POST /news-admin/j_spring_security_check HTTP/1.1" 403 1116
127.0.0.1 - - [10/Mar/2016:13:06:45 +0300] "GET / HTTP/1.1" 404 994
0:0:0:0:0:0:0:1 - - [10/Mar/2016:13:06:46 +0300] "GET /news-admin/ HTTP/1.1" 200 232
0:0:0:0:0:0:0:1 - - [10/Mar/2016:13:06:47 +0300] "GET /news-admin/tags HTTP/1.1" 302 -
0:0:0:0:0:0:0:1 - - [10/Mar/2016:13:06:47 +0300] "GET /news-admin/login HTTP/1.1" 200 1391
0:0:0:0:0:0:0:1 - - [10/Mar/2016:13:06:54 +0300] "POST /news-admin/j_spring_security_check HTTP/1.1" 404 992
127.0.0.1 - - [10/Mar/2016:13:07:36 +0300] "GET / HTTP/1.1" 404 994
0:0:0:0:0:0:0:1 - - [10/Mar/2016:13:07:36 +0300] "GET /news-admin/ HTTP/1.1" 200 232
0:0:0:0:0:0:0:1 - - [10/Mar/2016:13:07:42 +0300] "GET /news-admin/login HTTP/1.1" 200 1391
0:0:0:0:0:0:0:1 - - [10/Mar/2016:13:08:11 +0300] "GET /news-admin/failure HTTP/1.1" 200 1390
0:0:0:0:0:0:0:1 - - [10/Mar/2016:13:08:17 +0300] "GET /news-admin/ HTTP/1.1" 200 232
0:0:0:0:0:0:0:1 - - [10/Mar/2016:13:08:19 +0300] "GET /news-admin/failure HTTP/1.1" 200 1390
127.0.0.1 - - [10/Mar/2016:13:09:59 +0300] "GET / HTTP/1.1" 404 994
0:0:0:0:0:0:0:1 - - [10/Mar/2016:13:09:59 +0300] "GET /news-admin/ HTTP/1.1" 200 232
0:0:0:0:0:0:0:1 - - [10/Mar/2016:13:10:11 +0300] "GET /news-admin/failure HTTP/1.1" 200 1390
0:0:0:0:0:0:0:1 - - [10/Mar/2016:13:10:15 +0300] "GET /news-admin/failurehh HTTP/1.1" 404 992
0:0:0:0:0:0:0:1 - - [10/Mar/2016:13:10:20 +0300] "GET /news-admin/failure HTTP/1.1" 200 1390
127.0.0.1 - - [10/Mar/2016:13:12:01 +0300] "GET / HTTP/1.1" 404 994
0:0:0:0:0:0:0:1 - - [10/Mar/2016:13:12:02 +0300] "GET /news-admin/ HTTP/1.1" 200 232
0:0:0:0:0:0:0:1 - - [10/Mar/2016:13:12:03 +0300] "GET /news-admin/tags HTTP/1.1" 302 -
0:0:0:0:0:0:0:1 - - [10/Mar/2016:13:12:03 +0300] "GET /news-admin/login HTTP/1.1" 200 1391
0:0:0:0:0:0:0:1 - - [10/Mar/2016:13:12:12 +0300] "GET /news-admin/fail HTTP/1.1" 200 945
0:0:0:0:0:0:0:1 - - [10/Mar/2016:13:12:14 +0300] "GET /news-admin/fail HTTP/1.1" 200 945
0:0:0:0:0:0:0:1 - - [10/Mar/2016:13:12:17 +0300] "GET /news-admin/fail HTTP/1.1" 200 945
0:0:0:0:0:0:0:1 - - [10/Mar/2016:13:12:17 +0300] "GET /news-admin/fail HTTP/1.1" 200 945
0:0:0:0:0:0:0:1 - - [10/Mar/2016:13:12:17 +0300] "GET /news-admin/fail HTTP/1.1" 200 945
127.0.0.1 - - [10/Mar/2016:13:18:31 +0300] "GET / HTTP/1.1" 404 994
0:0:0:0:0:0:0:1 - - [10/Mar/2016:13:18:32 +0300] "GET /news-admin/ HTTP/1.1" 200 232
0:0:0:0:0:0:0:1 - - [10/Mar/2016:13:18:33 +0300] "GET /news-admin/tags HTTP/1.1" 302 -
0:0:0:0:0:0:0:1 - - [10/Mar/2016:13:18:33 +0300] "GET /news-admin/login HTTP/1.1" 200 1391
0:0:0:0:0:0:0:1 - - [10/Mar/2016:13:18:38 +0300] "GET /news-admin/logout HTTP/1.1" 404 992
0:0:0:0:0:0:0:1 - - [10/Mar/2016:13:19:09 +0300] "GET /news-admin/WEB-INF/views/fail.jsp HTTP/1.1" 404 992
127.0.0.1 - - [10/Mar/2016:13:19:37 +0300] "GET / HTTP/1.1" 404 994
0:0:0:0:0:0:0:1 - - [10/Mar/2016:13:19:37 +0300] "GET /news-admin/ HTTP/1.1" 200 232
0:0:0:0:0:0:0:1 - - [10/Mar/2016:13:19:40 +0300] "GET /news-admin/fail HTTP/1.1" 200 945
127.0.0.1 - - [10/Mar/2016:13:20:20 +0300] "GET / HTTP/1.1" 404 994
0:0:0:0:0:0:0:1 - - [10/Mar/2016:13:20:20 +0300] "GET /news-admin/ HTTP/1.1" 200 232
0:0:0:0:0:0:0:1 - - [10/Mar/2016:13:20:21 +0300] "GET /news-admin/tags HTTP/1.1" 302 -
0:0:0:0:0:0:0:1 - - [10/Mar/2016:13:20:21 +0300] "GET /news-admin/login HTTP/1.1" 404 992
0:0:0:0:0:0:0:1 - - [10/Mar/2016:13:20:27 +0300] "GET /news-admin/login HTTP/1.1" 404 992
127.0.0.1 - - [10/Mar/2016:13:22:17 +0300] "GET / HTTP/1.1" 404 994
0:0:0:0:0:0:0:1 - - [10/Mar/2016:13:22:18 +0300] "GET /news-admin/ HTTP/1.1" 200 232
0:0:0:0:0:0:0:1 - - [10/Mar/2016:13:22:21 +0300] "GET /news-admin/fail HTTP/1.1" 404 992
0:0:0:0:0:0:0:1 - - [10/Mar/2016:13:22:33 +0300] "GET /news-admin/login HTTP/1.1" 404 992
127.0.0.1 - - [10/Mar/2016:13:23:47 +0300] "GET / HTTP/1.1" 404 994
0:0:0:0:0:0:0:1 - - [10/Mar/2016:13:23:48 +0300] "GET /news-admin/ HTTP/1.1" 200 232
0:0:0:0:0:0:0:1 - - [10/Mar/2016:13:23:51 +0300] "GET /news-admin/fail HTTP/1.1" 200 945
0:0:0:0:0:0:0:1 - - [10/Mar/2016:13:24:00 +0300] "GET /news-admin/login HTTP/1.1" 200 1391
0:0:0:0:0:0:0:1 - - [10/Mar/2016:13:24:43 +0300] "POST /news-admin/j_spring_security_check HTTP/1.1" 404 992
127.0.0.1 - - [10/Mar/2016:13:29:23 +0300] "GET / HTTP/1.1" 404 994
0:0:0:0:0:0:0:1 - - [10/Mar/2016:13:29:24 +0300] "GET /news-admin/ HTTP/1.1" 200 232
0:0:0:0:0:0:0:1 - - [10/Mar/2016:13:29:25 +0300] "GET /news-admin/tags HTTP/1.1" 302 -
0:0:0:0:0:0:0:1 - - [10/Mar/2016:13:29:26 +0300] "GET /news-admin/login HTTP/1.1" 200 1391
0:0:0:0:0:0:0:1 - - [10/Mar/2016:13:29:30 +0300] "POST /news-admin/j_spring_security_check HTTP/1.1" 404 992
127.0.0.1 - - [10/Mar/2016:13:30:29 +0300] "GET / HTTP/1.1" 404 994
0:0:0:0:0:0:0:1 - - [10/Mar/2016:13:30:29 +0300] "GET /news-admin/ HTTP/1.1" 200 232
0:0:0:0:0:0:0:1 - - [10/Mar/2016:13:30:30 +0300] "GET /news-admin/tags HTTP/1.1" 302 -
0:0:0:0:0:0:0:1 - - [10/Mar/2016:13:30:31 +0300] "GET /news-admin/login HTTP/1.1" 200 1697
0:0:0:0:0:0:0:1 - - [10/Mar/2016:13:30:38 +0300] "POST /news-admin/j_spring_security_check HTTP/1.1" 404 992
127.0.0.1 - - [10/Mar/2016:13:37:06 +0300] "GET / HTTP/1.1" 404 994
0:0:0:0:0:0:0:1 - - [10/Mar/2016:13:37:06 +0300] "GET /news-admin/ HTTP/1.1" 200 232
0:0:0:0:0:0:0:1 - - [10/Mar/2016:13:37:08 +0300] "GET /news-admin/tags HTTP/1.1" 302 -
0:0:0:0:0:0:0:1 - - [10/Mar/2016:13:37:09 +0300] "GET /news-admin/login HTTP/1.1" 200 1659
0:0:0:0:0:0:0:1 - - [10/Mar/2016:13:37:13 +0300] "POST /news-admin/j_spring_security_check HTTP/1.1" 404 992
127.0.0.1 - - [10/Mar/2016:13:46:57 +0300] "GET / HTTP/1.1" 404 994
0:0:0:0:0:0:0:1 - - [10/Mar/2016:13:46:58 +0300] "GET /news-admin/ HTTP/1.1" 200 232
0:0:0:0:0:0:0:1 - - [10/Mar/2016:13:46:59 +0300] "GET /news-admin/tags HTTP/1.1" 302 -
0:0:0:0:0:0:0:1 - - [10/Mar/2016:13:46:59 +0300] "GET /news-admin/login HTTP/1.1" 200 1659
0:0:0:0:0:0:0:1 - - [10/Mar/2016:13:47:03 +0300] "POST /news-admin/j_spring_security_check HTTP/1.1" 404 992
127.0.0.1 - - [10/Mar/2016:13:48:51 +0300] "GET / HTTP/1.1" 404 994
0:0:0:0:0:0:0:1 - - [10/Mar/2016:13:48:51 +0300] "GET /news-admin/ HTTP/1.1" 200 232
0:0:0:0:0:0:0:1 - - [10/Mar/2016:13:48:52 +0300] "GET /news-admin/tags HTTP/1.1" 302 -
0:0:0:0:0:0:0:1 - - [10/Mar/2016:13:48:53 +0300] "GET /news-admin/login HTTP/1.1" 200 1462
0:0:0:0:0:0:0:1 - - [10/Mar/2016:13:49:00 +0300] "POST /news-admin/j_spring_security_check HTTP/1.1" 404 992
127.0.0.1 - - [10/Mar/2016:13:50:33 +0300] "GET / HTTP/1.1" 404 994
0:0:0:0:0:0:0:1 - - [10/Mar/2016:13:50:33 +0300] "GET /news-admin/ HTTP/1.1" 200 232
0:0:0:0:0:0:0:1 - - [10/Mar/2016:13:50:34 +0300] "GET /news-admin/tags HTTP/1.1" 302 -
0:0:0:0:0:0:0:1 - - [10/Mar/2016:13:50:35 +0300] "GET /news-admin/login HTTP/1.1" 200 1410
0:0:0:0:0:0:0:1 - - [10/Mar/2016:13:50:39 +0300] "POST /news-admin/j_spring_security_check HTTP/1.1" 404 992
127.0.0.1 - - [10/Mar/2016:13:56:39 +0300] "GET / HTTP/1.1" 404 994
0:0:0:0:0:0:0:1 - - [10/Mar/2016:13:56:40 +0300] "GET /news-admin/ HTTP/1.1" 200 232
0:0:0:0:0:0:0:1 - - [10/Mar/2016:13:56:41 +0300] "GET /news-admin/tags HTTP/1.1" 302 -
0:0:0:0:0:0:0:1 - - [10/Mar/2016:13:56:42 +0300] "GET /news-admin/login HTTP/1.1" 200 1239
127.0.0.1 - - [10/Mar/2016:14:00:38 +0300] "GET / HTTP/1.1" 404 994
0:0:0:0:0:0:0:1 - - [10/Mar/2016:14:00:39 +0300] "GET /news-admin/ HTTP/1.1" 200 232
0:0:0:0:0:0:0:1 - - [10/Mar/2016:14:00:42 +0300] "GET /news-admin/fail HTTP/1.1" 200 945
0:0:0:0:0:0:0:1 - - [10/Mar/2016:14:00:46 +0300] "GET /news-admin/ HTTP/1.1" 200 232
0:0:0:0:0:0:0:1 - - [10/Mar/2016:14:00:47 +0300] "GET /news-admin/tags HTTP/1.1" 302 -
0:0:0:0:0:0:0:1 - - [10/Mar/2016:14:00:48 +0300] "GET /news-admin/login HTTP/1.1" 200 1422
0:0:0:0:0:0:0:1 - - [10/Mar/2016:14:00:52 +0300] "POST /news-admin/j_spring_security_check HTTP/1.1" 404 992
127.0.0.1 - - [10/Mar/2016:14:04:09 +0300] "GET / HTTP/1.1" 404 994
0:0:0:0:0:0:0:1 - - [10/Mar/2016:14:04:10 +0300] "GET /news-admin/ HTTP/1.1" 200 232
0:0:0:0:0:0:0:1 - - [10/Mar/2016:14:04:12 +0300] "GET /news-admin/tags HTTP/1.1" 302 -
0:0:0:0:0:0:0:1 - - [10/Mar/2016:14:04:13 +0300] "GET /news-admin/login HTTP/1.1" 200 1481
0:0:0:0:0:0:0:1 - - [10/Mar/2016:14:04:18 +0300] "POST /j_spring_security_check HTTP/1.1" 404 1040
127.0.0.1 - - [10/Mar/2016:14:05:45 +0300] "GET / HTTP/1.1" 404 994
0:0:0:0:0:0:0:1 - - [10/Mar/2016:14:05:46 +0300] "GET /news-admin/ HTTP/1.1" 200 232
0:0:0:0:0:0:0:1 - - [10/Mar/2016:14:05:47 +0300] "GET /news-admin/tags HTTP/1.1" 302 -
0:0:0:0:0:0:0:1 - - [10/Mar/2016:14:05:48 +0300] "GET /news-admin/login HTTP/1.1" 200 1532
0:0:0:0:0:0:0:1 - - [10/Mar/2016:14:05:55 +0300] "POST /news-admin/j_spring_security_check HTTP/1.1" 404 992
0:0:0:0:0:0:0:1 - - [10/Mar/2016:14:06:02 +0300] "GET /news-admin/ HTTP/1.1" 200 232
0:0:0:0:0:0:0:1 - - [10/Mar/2016:14:06:03 +0300] "GET /news-admin/tags HTTP/1.1" 302 -
0:0:0:0:0:0:0:1 - - [10/Mar/2016:14:06:03 +0300] "GET /news-admin/login HTTP/1.1" 200 1532
127.0.0.1 - - [10/Mar/2016:14:07:28 +0300] "GET / HTTP/1.1" 404 994
0:0:0:0:0:0:0:1 - - [10/Mar/2016:14:07:29 +0300] "GET /news-admin/ HTTP/1.1" 302 -
0:0:0:0:0:0:0:1 - - [10/Mar/2016:14:07:29 +0300] "GET /news-admin/login HTTP/1.1" 200 546
0:0:0:0:0:0:0:1 - - [10/Mar/2016:14:07:34 +0300] "POST /news-admin/login HTTP/1.1" 302 -
0:0:0:0:0:0:0:1 - - [10/Mar/2016:14:07:34 +0300] "GET /news-admin/ HTTP/1.1" 200 232
0:0:0:0:0:0:0:1 - - [10/Mar/2016:14:07:35 +0300] "GET /news-admin/tags HTTP/1.1" 200 6532
0:0:0:0:0:0:0:1 - - [10/Mar/2016:14:07:43 +0300] "POST /news-admin/tags_add HTTP/1.1" 403 1116
127.0.0.1 - - [10/Mar/2016:14:12:06 +0300] "GET / HTTP/1.1" 404 994
0:0:0:0:0:0:0:1 - - [10/Mar/2016:14:12:06 +0300] "GET /news-admin/ HTTP/1.1" 302 -
0:0:0:0:0:0:0:1 - - [10/Mar/2016:14:12:06 +0300] "GET /news-admin/login HTTP/1.1" 200 546
0:0:0:0:0:0:0:1 - - [10/Mar/2016:14:12:11 +0300] "POST /news-admin/login HTTP/1.1" 302 -
0:0:0:0:0:0:0:1 - - [10/Mar/2016:14:12:11 +0300] "GET /news-admin/ HTTP/1.1" 200 232
0:0:0:0:0:0:0:1 - - [10/Mar/2016:14:12:14 +0300] "GET /news-admin/tags HTTP/1.1" 200 6446
0:0:0:0:0:0:0:1 - - [10/Mar/2016:14:12:20 +0300] "GET /news-admin/login HTTP/1.1" 200 546
0:0:0:0:0:0:0:1 - - [10/Mar/2016:14:12:26 +0300] "GET /news-admin/fail HTTP/1.1" 200 945
0:0:0:0:0:0:0:1 - - [10/Mar/2016:14:12:29 +0300] "GET /news-admin/login HTTP/1.1" 200 546
0:0:0:0:0:0:0:1 - - [10/Mar/2016:14:12:30 +0300] "GET /news-admin/tags HTTP/1.1" 200 6446
0:0:0:0:0:0:0:1 - - [10/Mar/2016:14:12:32 +0300] "POST /news-admin/tags_add HTTP/1.1" 403 1192
127.0.0.1 - - [10/Mar/2016:14:16:57 +0300] "GET / HTTP/1.1" 404 994
0:0:0:0:0:0:0:1 - - [10/Mar/2016:14:16:58 +0300] "GET /news-admin/ HTTP/1.1" 200 232
0:0:0:0:0:0:0:1 - - [10/Mar/2016:14:16:59 +0300] "GET /news-admin/tags HTTP/1.1" 200 6446
0:0:0:0:0:0:0:1 - - [10/Mar/2016:14:17:00 +0300] "POST /news-admin/tags_add HTTP/1.1" 200 6446
127.0.0.1 - - [10/Mar/2016:14:35:09 +0300] "GET / HTTP/1.1" 404 994
0:0:0:0:0:0:0:1 - - [10/Mar/2016:14:35:09 +0300] "GET /news-admin/ HTTP/1.1" 404 1016
127.0.0.1 - - [10/Mar/2016:14:39:30 +0300] "GET / HTTP/1.1" 404 994
0:0:0:0:0:0:0:1 - - [10/Mar/2016:14:39:31 +0300] "GET /news-admin/ HTTP/1.1" 404 1016
127.0.0.1 - - [10/Mar/2016:14:40:32 +0300] "GET / HTTP/1.1" 404 994
0:0:0:0:0:0:0:1 - - [10/Mar/2016:14:40:32 +0300] "GET /news-admin/ HTTP/1.1" 200 232
0:0:0:0:0:0:0:1 - - [10/Mar/2016:14:40:34 +0300] "GET /news-admin/tags HTTP/1.1" 302 -
0:0:0:0:0:0:0:1 - - [10/Mar/2016:14:40:34 +0300] "GET /news-admin/login HTTP/1.1" 200 1730
0:0:0:0:0:0:0:1 - - [10/Mar/2016:14:40:39 +0300] "POST /news-admin/j_spring_security_check HTTP/1.1" 403 1116
127.0.0.1 - - [10/Mar/2016:14:41:05 +0300] "GET / HTTP/1.1" 404 994
0:0:0:0:0:0:0:1 - - [10/Mar/2016:14:41:06 +0300] "GET /news-admin/ HTTP/1.1" 200 232
0:0:0:0:0:0:0:1 - - [10/Mar/2016:14:41:07 +0300] "GET /news-admin/tags HTTP/1.1" 302 -
0:0:0:0:0:0:0:1 - - [10/Mar/2016:14:41:07 +0300] "GET /news-admin/login HTTP/1.1" 200 1730
0:0:0:0:0:0:0:1 - - [10/Mar/2016:14:41:11 +0300] "POST /news-admin/j_spring_security_check HTTP/1.1" 404 992
127.0.0.1 - - [10/Mar/2016:14:45:58 +0300] "GET / HTTP/1.1" 404 994
0:0:0:0:0:0:0:1 - - [10/Mar/2016:14:45:58 +0300] "GET /news-admin/ HTTP/1.1" 200 232
0:0:0:0:0:0:0:1 - - [10/Mar/2016:14:45:59 +0300] "GET /news-admin/tags HTTP/1.1" 302 -
0:0:0:0:0:0:0:1 - - [10/Mar/2016:14:45:59 +0300] "GET /news-admin/login HTTP/1.1" 200 1730
0:0:0:0:0:0:0:1 - - [10/Mar/2016:14:46:03 +0300] "POST /news-admin/j_spring_security_check HTTP/1.1" 404 992
127.0.0.1 - - [10/Mar/2016:15:32:36 +0300] "GET / HTTP/1.1" 404 994
0:0:0:0:0:0:0:1 - - [10/Mar/2016:15:32:37 +0300] "GET /news-admin/ HTTP/1.1" 200 232
0:0:0:0:0:0:0:1 - - [10/Mar/2016:15:32:38 +0300] "GET /news-admin/tags HTTP/1.1" 500 10900
127.0.0.1 - - [10/Mar/2016:15:34:28 +0300] "GET / HTTP/1.1" 404 994
0:0:0:0:0:0:0:1 - - [10/Mar/2016:15:34:29 +0300] "GET /news-admin/ HTTP/1.1" 200 232
0:0:0:0:0:0:0:1 - - [10/Mar/2016:15:34:30 +0300] "GET /news-admin/tags HTTP/1.1" 302 -
0:0:0:0:0:0:0:1 - - [10/Mar/2016:15:34:31 +0300] "GET /news-admin/login HTTP/1.1" 200 2197
0:0:0:0:0:0:0:1 - - [10/Mar/2016:15:34:37 +0300] "POST /news-admin/j_spring_security_check HTTP/1.1" 404 992
127.0.0.1 - - [10/Mar/2016:15:42:32 +0300] "GET / HTTP/1.1" 404 994
0:0:0:0:0:0:0:1 - - [10/Mar/2016:15:42:33 +0300] "GET /news-admin/ HTTP/1.1" 200 232
0:0:0:0:0:0:0:1 - - [10/Mar/2016:15:42:34 +0300] "GET /news-admin/tags HTTP/1.1" 302 -
0:0:0:0:0:0:0:1 - - [10/Mar/2016:15:42:34 +0300] "GET /news-admin/login HTTP/1.1" 200 2197
0:0:0:0:0:0:0:1 - - [10/Mar/2016:15:42:39 +0300] "POST /news-admin/j_spring_security_check HTTP/1.1" 404 992
127.0.0.1 - - [10/Mar/2016:15:43:48 +0300] "GET / HTTP/1.1" 404 994
0:0:0:0:0:0:0:1 - - [10/Mar/2016:15:43:49 +0300] "GET /news-admin/ HTTP/1.1" 200 232
0:0:0:0:0:0:0:1 - - [10/Mar/2016:15:43:50 +0300] "GET /news-admin/tags HTTP/1.1" 302 -
0:0:0:0:0:0:0:1 - - [10/Mar/2016:15:43:50 +0300] "GET /news-admin/login HTTP/1.1" 200 2197
0:0:0:0:0:0:0:1 - - [10/Mar/2016:15:43:54 +0300] "POST /news-admin/j_spring_security_check HTTP/1.1" 404 992
127.0.0.1 - - [10/Mar/2016:15:51:00 +0300] "GET / HTTP/1.1" 404 994
0:0:0:0:0:0:0:1 - - [10/Mar/2016:15:51:00 +0300] "GET /news-admin/ HTTP/1.1" 404 1016
127.0.0.1 - - [10/Mar/2016:15:52:02 +0300] "GET / HTTP/1.1" 404 994
0:0:0:0:0:0:0:1 - - [10/Mar/2016:15:52:02 +0300] "GET /news-admin/ HTTP/1.1" 200 232
0:0:0:0:0:0:0:1 - - [10/Mar/2016:15:52:05 +0300] "GET /news-admin/tags HTTP/1.1" 302 -
0:0:0:0:0:0:0:1 - - [10/Mar/2016:15:52:05 +0300] "GET /news-admin/login HTTP/1.1" 200 2197
0:0:0:0:0:0:0:1 - - [10/Mar/2016:15:52:11 +0300] "POST /news-admin/j_spring_security_check HTTP/1.1" 302 -
0:0:0:0:0:0:0:1 - - [10/Mar/2016:15:52:11 +0300] "GET /news-admin/tags HTTP/1.1" 200 6875
0:0:0:0:0:0:0:1 - - [10/Mar/2016:15:54:48 +0300] "POST /news-admin/tags_add HTTP/1.1" 403 1192
0:0:0:0:0:0:0:1 - - [10/Mar/2016:15:55:06 +0300] "GET /news-admin/tags HTTP/1.1" 200 6875
0:0:0:0:0:0:0:1 - - [10/Mar/2016:15:55:15 +0300] "POST /news-admin/j_spring_security_logout HTTP/1.1" 404 992
127.0.0.1 - - [10/Mar/2016:16:34:22 +0300] "GET / HTTP/1.1" 404 994
0:0:0:0:0:0:0:1 - - [10/Mar/2016:16:34:23 +0300] "GET /news-admin/ HTTP/1.1" 200 232
0:0:0:0:0:0:0:1 - - [10/Mar/2016:16:34:24 +0300] "GET /news-admin/tags HTTP/1.1" 302 -
0:0:0:0:0:0:0:1 - - [10/Mar/2016:16:34:24 +0300] "GET /news-admin/login HTTP/1.1" 200 2197
0:0:0:0:0:0:0:1 - - [10/Mar/2016:16:34:29 +0300] "POST /news-admin/j_spring_security_check HTTP/1.1" 302 -
0:0:0:0:0:0:0:1 - - [10/Mar/2016:16:34:30 +0300] "GET /news-admin/tags HTTP/1.1" 200 6875
0:0:0:0:0:0:0:1 - - [10/Mar/2016:16:34:33 +0300] "POST /news-admin/tags_add HTTP/1.1" 403 1192
127.0.0.1 - - [10/Mar/2016:16:35:39 +0300] "GET / HTTP/1.1" 404 994
0:0:0:0:0:0:0:1 - - [10/Mar/2016:16:35:39 +0300] "GET /news-admin/ HTTP/1.1" 200 232
0:0:0:0:0:0:0:1 - - [10/Mar/2016:16:35:41 +0300] "GET /news-admin/tags HTTP/1.1" 200 6450
0:0:0:0:0:0:0:1 - - [10/Mar/2016:16:35:46 +0300] "POST /news-admin/tags_add HTTP/1.1" 403 1192
127.0.0.1 - - [10/Mar/2016:16:36:15 +0300] "GET / HTTP/1.1" 404 994
0:0:0:0:0:0:0:1 - - [10/Mar/2016:16:36:16 +0300] "GET /news-admin/ HTTP/1.1" 200 232
0:0:0:0:0:0:0:1 - - [10/Mar/2016:16:36:17 +0300] "GET /news-admin/tags HTTP/1.1" 200 6450
0:0:0:0:0:0:0:1 - - [10/Mar/2016:16:36:18 +0300] "POST /news-admin/tags_add HTTP/1.1" 403 1192
0:0:0:0:0:0:0:1 - - [10/Mar/2016:16:36:38 +0300] "GET /news-admin/tags HTTP/1.1" 200 6450
0:0:0:0:0:0:0:1 - - [10/Mar/2016:16:36:40 +0300] "GET /news-admin/tags HTTP/1.1" 200 6450
0:0:0:0:0:0:0:1 - - [10/Mar/2016:16:36:40 +0300] "GET /news-admin/tags HTTP/1.1" 200 6450
0:0:0:0:0:0:0:1 - - [10/Mar/2016:16:36:42 +0300] "GET /news-admin/tags HTTP/1.1" 200 6450
0:0:0:0:0:0:0:1 - - [10/Mar/2016:16:36:42 +0300] "GET /news-admin/tags HTTP/1.1" 200 6450
0:0:0:0:0:0:0:1 - - [10/Mar/2016:16:36:43 +0300] "GET /news-admin/tags HTTP/1.1" 200 6450
0:0:0:0:0:0:0:1 - - [10/Mar/2016:16:36:45 +0300] "POST /news-admin/tags_add HTTP/1.1" 403 1192
0:0:0:0:0:0:0:1 - - [10/Mar/2016:16:36:46 +0300] "GET /news-admin/tags HTTP/1.1" 200 6450
127.0.0.1 - - [10/Mar/2016:16:40:01 +0300] "GET / HTTP/1.1" 404 994
0:0:0:0:0:0:0:1 - - [10/Mar/2016:16:40:01 +0300] "GET /news-admin/ HTTP/1.1" 200 232
0:0:0:0:0:0:0:1 - - [10/Mar/2016:16:40:04 +0300] "GET /news-admin/tags HTTP/1.1" 200 6604
0:0:0:0:0:0:0:1 - - [10/Mar/2016:16:40:07 +0300] "POST /news-admin/tags_add HTTP/1.1" 200 6604
0:0:0:0:0:0:0:1 - - [10/Mar/2016:16:40:08 +0300] "POST /news-admin/tags_add HTTP/1.1" 403 1192
